\relax 
\@writefile{lot}{\contentsline {table}{\numberline {1}{\ignorespaces $\Vert  \mathbf  {u}_e \Vert  _{a}$with $\beta =-2.0$ and uniform mesh, potential flow, projected normal}}{1}\protected@file@percent }
\@writefile{lot}{\contentsline {table}{\numberline {2}{\ignorespaces $\Vert  p_e \Vert  _L^2{(\Omega )}$with $\beta =-2.0$ and uniform mesh, potential flow, projected normal}}{1}\protected@file@percent }
\@writefile{lot}{\contentsline {table}{\numberline {3}{\ignorespaces $\Vert  \mathbf  {u}_e \Vert  _{a}$with $\beta =-2.0$ and uniform mesh, potential flow, discrete normal}}{1}\protected@file@percent }
\@writefile{lot}{\contentsline {table}{\numberline {4}{\ignorespaces $\Vert  p_e \Vert  _L^2{(\Omega )}$with $\beta =-2.0$ and uniform mesh, potential flow, discrete normal}}{1}\protected@file@percent }
