<?xml version="1.0"?>
<VTKFile type="UnstructuredGrid"  version="0.1"  >
<UnstructuredGrid>
<Piece  NumberOfPoints="990" NumberOfCells="2822">
<Points>
<DataArray  type="Float64"  NumberOfComponents="3"  format="ascii">-3 -3 0  3 -3 0  3 3 0  -3 3 0  1 0 0  0 1 0  -1 0 0  0 -1 0  -2.80000000000074 3 0  -2.600000000001479 3 0  -2.400000000002218 3 0  -2.200000000002958 3 0  -2.000000000003697 3 0  -1.800000000004437 3 0  -1.600000000005177 3 0  -1.400000000005917 3 0  -1.200000000006657 3 0  -1.000000000007397 3 0  -0.8000000000081364 3 0  -0.6000000000088765 3 0  -0.4000000000096158 3 0  -0.2000000000103559 3 0  -1.100897151218305e-11 3 0  0.1999999999896458 3 0  0.3999999999903849 3 0  0.599999999991125 3 0  0.7999999999918641 3 0  0.9999999999926041 3 0  1.199999999993343 3 0  1.399999999994083 3 0  1.599999999994822 3 0  1.799999999995562 3 0  1.999999999996302 3 0  2.199999999997042 3 0  2.399999999997782 3 0  2.599999999998521 3 0  2.79999999999926 3 0  3 2.80000000000074 0  3 2.600000000001479 0  3 2.400000000002218 0  3 2.200000000002958 0  3 2.000000000003697 0  3 1.800000000004437 0  3 1.600000000005177 0  3 1.400000000005917 0  3 1.200000000006657 0  3 1.000000000007397 0  3 0.8000000000081364 0  3 0.6000000000088765 0  3 0.4000000000096158 0  3 0.2000000000103559 0  3 1.100897151218305e-11 0  3 -0.1999999999896458 0  3 -0.3999999999903849 0  3 -0.599999999991125 0  3 -0.7999999999918641 0  3 -0.9999999999926041 0  3 -1.199999999993343 0  3 -1.399999999994083 0  3 -1.599999999994822 0  3 -1.799999999995562 0  3 -1.999999999996302 0  3 -2.199999999997042 0  3 -2.399999999997782 0  3 -2.599999999998521 0  3 -2.79999999999926 0  2.80000000000074 -3 0  2.600000000001479 -3 0  2.400000000002218 -3 0  2.200000000002958 -3 0  2.000000000003697 -3 0  1.800000000004437 -3 0  1.600000000005177 -3 0  1.400000000005917 -3 0  1.200000000006657 -3 0  1.000000000007397 -3 0  0.8000000000081364 -3 0  0.6000000000088765 -3 0  0.4000000000096158 -3 0  0.2000000000103559 -3 0  1.100897151218305e-11 -3 0  -0.1999999999896458 -3 0  -0.3999999999903849 -3 0  -0.599999999991125 -3 0  -0.7999999999918641 -3 0  -0.9999999999926041 -3 0  -1.199999999993343 -3 0  -1.399999999994083 -3 0  -1.599999999994822 -3 0  -1.799999999995562 -3 0  -1.999999999996302 -3 0  -2.199999999997042 -3 0  -2.399999999997782 -3 0  -2.599999999998521 -3 0  -2.79999999999926 -3 0  -3 -2.80000000000074 0  -3 -2.600000000001479 0  -3 -2.400000000002218 0  -3 -2.200000000002958 0  -3 -2.000000000003697 0  -3 -1.800000000004437 0  -3 -1.600000000005177 0  -3 -1.400000000005917 0  -3 -1.200000000006657 0  -3 -1.000000000007397 0  -3 -0.8000000000081364 0  -3 -0.6000000000088765 0  -3 -0.4000000000096158 0  -3 -0.2000000000103559 0  -3 -1.100897151218305e-11 0  -3 0.1999999999896458 0  -3 0.3999999999903849 0  -3 0.599999999991125 0  -3 0.7999999999918641 0  -3 0.9999999999926041 0  -3 1.199999999993343 0  -3 1.399999999994083 0  -3 1.599999999994822 0  -3 1.799999999995562 0  -3 1.999999999996302 0  -3 2.199999999997042 0  -3 2.399999999997782 0  -3 2.599999999998521 0  -3 2.79999999999926 0  -0.9749279120513631 0.2225209345278994 0  -0.9009688673479023 0.4338837402690243 0  -0.7818314812388896 0.6234898034000266 0  -0.6234898003660622 0.7818314836583955 0  -0.4338837378663953 0.9009688685049474 0  -0.2225209332481045 0.9749279123434679 0  0.2225209345278994 0.9749279120513631 0  0.4338837402690243 0.9009688673479023 0  0.6234898034000266 0.7818314812388896 0  0.7818314836583955 0.6234898003660622 0  0.9009688685049474 0.4338837378663953 0  0.9749279123434679 0.2225209332481045 0  0.9749279120513631 -0.2225209345278994 0  0.9009688673479023 -0.4338837402690243 0  0.7818314812388896 -0.6234898034000266 0  0.6234898003660622 -0.7818314836583955 0  0.4338837378663953 -0.9009688685049474 0  0.2225209332481045 -0.9749279123434679 0  -0.2225209345278994 -0.9749279120513631 0  -0.4338837402690243 -0.9009688673479023 0  -0.6234898034000266 -0.7818314812388896 0  -0.7818314836583955 -0.6234898003660622 0  -0.9009688685049474 -0.4338837378663953 0  -0.9749279123434679 -0.2225209332481045 0  -2.824926201051453 1.72581354454063 0  1.678369073695944 2.808806618208811 0  2.84262435057476 -1.705459911405435 0  -1.715502734045909 -2.815384069086982 0  2.829261045482556 1.497633562860664 0  -1.500650426039977 2.809097423515424 0  1.525159994697988 -2.837720030405967 0  -2.820924807676203 -1.491377797718179 0  -0.8363345516555377 0.8554035462394156 0  0.840931448177374 0.8294826452220183 0  0.8403619341079601 -0.8250437500419708 0  -0.8553949494677646 -0.8363269456920885 0  1.124502902500973 2.844049129320184 0  2.821599029368822 -1.072002836738564 0  -1.101922428175887 -2.846353554640791 0  -2.826794919242472 1.099999999992974 0  -0.900788551833823 2.838534403788615 0  2.849253361421628 0.8954286516719964 0  0.8754249810321243 -2.844496211941202 0  -2.835795422441163 -0.9216117724384129 0  2.830588492976436 -0.4928509442067808 0  -0.4949086982766391 -2.80012280981455 0  0.5027199558456966 2.82678850800738 0  -2.819439815246632 0.4751207803878764 0  -0.314094585846517 2.833282883138244 0  0.2978004607687574 -2.808078704343999 0  -2.850535366726293 -0.3318739404829867 0  2.821207292632866 0.3148939682724088 0  -0.3999779249912592 1.118977095438701 0  1.118514398451219 0.3913814293983143 0  0.3922527463518974 -1.120993948612716 0  -1.101776956151466 -0.3635775281753036 0  1.117662140827448 -0.3843573835947609 0  -0.3843738336303151 -1.117634434368351 0  -1.112793660584212 0.3986503403541557 0  0.3995853024801273 1.140917059867365 0  2.793987587432486 2.101033814601304 0  2.091754601701373 -2.817697127985754 0  -2.826794919243753 -2.100000000003328 0  -2.068571465520696 2.807196908962227 0  2.299098389888549 2.839993931545651 0  2.84359057979184 -2.332500013511207 0  -2.298270116725896 -2.794467213246894 0  -2.833023766486249 2.273711319284878 0  0.1073192811977821 2.809597743569898 0  2.826794919243111 -0.09999999998931841 0  -2.846553517469374 0.1205655358139097 0  -0.09999999998931841 -2.826794919243111 0  -2.500000000001848 2.826794919243753 0  2.837521316180848 2.515440689539467 0  2.503801678261588 -2.835648036878785 0  -2.798544622625865 -2.49760895529896 0  2.691767022050716 2.80114416892194 0  2.821000497431991 -2.689584243347528 0  -2.701882503815287 -2.8309685899633 0  -2.809502265972058 2.692649163937418 0  1.069720436768836 -0.613598413453367 0  1.267554677225949 -0.5611164593264517 0  1.336104621053159 -0.3462530587817915 0  1.480665695716649 -0.5208155229788158 0  1.408267253976811 -0.7258498170281398 0  1.553467581135942 -0.3183438510637022 0  1.621561266918412 -0.6879860755151717 0  1.549500670202902 -0.8893867500150819 0  1.760074056970174 -0.8502751355964248 0  1.689288145233673 -1.051487536567129 0  1.480226274059959 -1.091132473632384 0  1.619131255635559 -1.252698043079851 0  1.41124828648265 -1.292233533252053 0  1.549595124020329 -1.452435064024225 0  1.342389201178459 -1.492438139626349 0  1.480590084377049 -1.651288215793251 0  1.273902994897511 -1.691629236914091 0  1.686923715950278 -1.612069158667918 0  1.61810674150698 -1.809095458802173 0  1.822592041851233 -1.770341150624022 0  1.754892282407831 -1.965880063029995 0  1.957705656572202 -1.926400423778307 0  2.0257166733273 -1.732278089363848 0  1.897927105940019 -1.011514743404455 0  1.968502071275584 -0.8120388723869569 0  1.551167173963367 -2.005414659752346 0  1.135526622417767 -1.53248622257765 0  1.066975656095416 -1.732296667958034 0  2.159754147730607 -1.888139439084783 0  2.091301544115606 -2.081978517343085 0  1.687339443939506 -2.160628896374517 0  1.485311921233855 -2.200412306977308 0  2.104125104942925 -0.9754469973408938 0  2.174826711331066 -0.773991988223068 0  2.227387543184779 -1.694425927905653 0  0.9283109860118721 -1.573172216477335 0  0.8600228562913528 -1.773300837030576 0  0.9985409353225935 -1.931714422475429 0  0.7915976084827119 -1.972854669999388 0  0.6530604954878119 -1.814475957914083 0  0.5849673033845437 -2.014184172447965 0  0.4472021460137404 -1.860775534783454 0  0.3791882936484349 -2.056421512301734 0  0.240775309218105 -1.903169850469299 0  0.1726825386683687 -2.098128672058747 0  0.03480580666099904 -1.94485768243875 0  -0.03440753304741417 -2.13896340675596 0  -0.167737184211721 -1.977964678698293 0  -0.2395923335925247 -2.179318790778454 0  -0.3722395577738555 -2.012057470104144 0  -0.4448970953866123 -2.218924972926621 0  -0.5839760287293611 -2.061543269850593 0  -0.5186224386355763 -1.864581780520881 0  -0.7225269566739053 -1.917048304338378 0  -0.7914699187914196 -2.106025712393639 0  -0.9306491457851334 -1.95049817503462 0  -0.8430385103710254 -1.740432467126771 0  -1.067115629964643 -1.791244029525814 0  -1.136340418067395 -1.991774232941555 0  -1.275732612312537 -1.835597010195651 0  -1.208831163195445 -1.643752999239081 0  -1.415538364417843 -1.681670875517992 0  -1.480461058099182 -1.879078500051267 0  -1.620265473970986 -1.724333245178752 0  -1.556028776333022 -1.525771479589948 0  -1.683945578883332 -1.922123940458279 0  -1.76045702280476 -1.569518577414162 0  -1.696492776737856 -1.370796793083107 0  -1.900416647472263 -1.417007514079308 0  -1.836885344613541 -1.216337705562187 0  -1.962122696785843 -1.617875585411407 0  -2.039171583740584 -1.269278301649493 0  -1.977418502842593 -1.065830704295847 0  -1.755358146174356 -1.001901596087833 0  -1.921717134492431 -0.8563067362626248 0  -1.545026708437466 -2.075749750679282 0  -1.746998353116798 -2.118509837629633 0  -1.496023443849213 -1.330219286457671 0  -2.118090593447168 -0.9115683745741171 0  -2.056486105752583 -0.7062857246761741 0  -1.862217798692418 -0.6568716272960043 0  -1.994634988323187 -0.5047758211802553 0  -1.788592163486397 -0.4591500380524985 0  -1.929978233807485 -0.3032682310332948 0  -1.721190834120653 -0.2582012376463608 0  -1.858385146009193 -0.09982173152449525 0  -2.072951920106984 -0.1475065750211579 0  -2.008534870447731 0.05574160304436807 0  -1.802903293752085 0.1015042659866535 0  -1.949440515335273 0.2578862619261988 0  -2.153167095573612 0.2111934505598172 0  -2.091274922935046 0.4122453084805118 0  -1.888001906891048 0.4601725595635441 0  -2.029740673875535 0.6141214294077992 0  -1.823822749707464 0.6615114410270332 0  -1.967703838559079 0.8162534811129027 0  -1.7619149033272 0.8637553501465878 0  -1.905916567922649 1.018554781652265 0  -1.694961955009768 1.064516346955013 0  -1.843388876660711 1.219472694761823 0  -1.632663930015735 1.266170041334325 0  -1.781840507420051 1.421885393794973 0  -1.576951598927793 1.469363523843983 0  -1.720157066145453 1.623303219956176 0  -1.51727791486994 1.670502364687287 0  -1.659662013104724 1.822611405136047 0  -1.457216309085966 1.869969472387356 0  -1.314441009252718 1.717783478326864 0  -1.25396602624307 1.91781297582973 0  -1.86181901449263 1.776219235372119 0  -1.110942939565775 1.765360348064541 0  -1.048842743988878 1.9669697836737 0  -0.9069402226741446 1.813100446664504 0  -0.8436390010659741 2.016033985817588 0  -0.7017791868443709 1.861347300934832 0  -1.801425818638765 1.973864674860467 0  -2.004861199110063 1.925326738824991 0  -2.065080376326465 1.72846661683029 0  -0.6401177326814749 2.063090525820428 0  -0.4971133588218194 1.909368456348268 0  -0.436403195081032 2.110176367916495 0  -0.2924625609705921 1.956794871628444 0  -2.049049787118305 1.171546544524475 0  -1.190401636761863 2.120085377064724 0  -1.178230396456427 1.537252671695419 0  -0.2297695445942568 2.158768632165458 0  -0.08642752245881509 2.005096303363755 0  -0.1481775449693827 1.802318967127709 0  0.05797161674619918 1.850993834371319 0  0.1190287278386297 2.053782712120418 0  0.2638506347172515 1.900443060568712 0  0.3241601763051257 2.102730634604709 0  0.4692931050656377 1.949803414134313 0  0.5311121042630448 2.15166425177065 0  0.6753767267275704 1.999289941078948 0  0.6145638926992365 1.796883688282425 0  0.8199987645356572 1.846904029129585 0  0.8796420800697751 2.048908107179408 0  1.024491239684888 1.897150443453045 0  1.082819128352901 2.098357969471456 0  1.227453145691903 1.947324842878598 0  1.169348073100509 1.746400880519721 0  1.372663217271188 1.796664839198836 0  1.314638354428779 1.595554271128996 0  1.518218374455215 1.645861987671424 0  1.460188017940524 1.444610319271892 0  1.663996626131921 1.49476658637881 0  1.722186468339527 1.694692260698249 0  1.605824514443354 1.293138268121583 0  1.809844715430701 1.343456060974968 0  1.751747287426302 1.141854620130891 0  1.955241356424656 1.192994781152112 0  1.897655969825177 0.9909832864762 0  2.013204314501294 1.393291124277828 0  1.429564737486678 1.996451084205042 0  1.110755024519257 1.544924567734732 0  2.157348066014255 1.244171196260596 0  1.693601967874273 0.9397423622975949 0  1.84012679122966 0.7883841065336343 0  2.043749919079653 0.8399358308521885 0  1.986778554446389 0.6378641280772093 0  2.189593821832453 0.688961398409923 0  2.133006479682913 0.4874345364269227 0  1.929750726329125 0.4359944951351915 0  2.08123093156857 0.2910215048937038 0  -2.173296418772705 0.7699286547204062 0  -1.943282170954771 2.123484103954457 0  -2.144894743733159 2.075294175676484 0  0.1002559293729758 -1.738751708646382 0  0.93113168764026 -2.130291198984275 0  0.517540096131586 -2.213088717822634 0  2.214741091399953 1.442860111342252 0  -1.546491548994286 0.9006577047284072 0  -2.197564003051394 -0.5510124669408708 0  2.039206330572751 -0.6142176725500808 0  -1.745385182301283 2.177814958023898 0  1.401417892814392 1.243064940699633 0  -0.5786979468931803 2.263332176846723 0  -0.7589465832052259 1.655677129894396 0  0.9391613397598331 2.249082216290392 0  1.140348289446827 2.297696489922699 0  2.244983358300348 -0.5766818899467261 0  2.104146121867354 -0.4216713993048498 0  1.897848600633085 0.2231856896321133 0  -0.002774342564717031 1.646498021549048 0  -1.688209753837369 -0.6408096886099334 0  2.292321316152808 -2.042992577901607 0  2.223422229242865 -2.236919076935395 0  2.3796942725929 -0.7350146771797413 0  1.63470139318286 0.7366979801855127 0  2.290107432526687 -0.384998629639592 0  -1.609258853421732 -2.271574321619113 0  -1.809970492980823 -2.314105516372699 0  -1.947376863189069 -2.162284182547605 0  2.357839023632679 1.294880557676005 0  0.1803928719224745 2.255333849974985 0  -2.009641280237933 -2.356470659753847 0  -2.14621016757401 -2.205808420903232 0  -2.083186733556225 2.272733232450735 0  0.1062531462650381 -2.297447286700375 0  -2.284369628336108 2.223881266372648 0  -2.349013482098441 2.023161257969021 0  2.096683343120302 -1.536777860176463 0  2.29665395960059 -1.501448213159321 0  2.279467678301534 0.3385875711683767 0  -2.295373381726852 0.3646809031509693 0  -1.685545039718513 0.4984892448533563 0  0.9960514370894886 -1.372159978290104 0  1.413295946277603 -0.1456600565980003 0  0.5324933756788537 -1.659934314688531 0  2.228418374750133 0.1432669371143442 0  -2.357165761233048 0.1656646486595381 0  1.620261290929146 -2.35532303927662 0  1.418861254726865 -2.394597480171449 0  -0.2113246181303886 1.597828152568708 0  -0.3077463991270758 -2.376996407355344 0  -2.208452692419529 -2.398757709507891 0  -2.344570647867626 -2.248673736233956 0  -2.282579085899969 -2.055734339097738 0  -0.5117960796734702 -2.417594478204701 0  -2.406212850862858 -2.440995008257219 0  2.414340560046773 1.492508253932189 0  2.272206368874093 1.640288703879057 0  2.471074773946363 1.688846678348385 0  2.329453576914488 1.836477245334231 0  -2.222079760849978 2.420586623638791 0  -2.028230202665256 2.463530082563845 0  -2.422208782219522 2.372115070824425 0  2.424573601921371 0.1902184157589331 0  2.245852320837955 0.8916278961025847 0  2.390829056286363 0.7406247828635191 0  2.446849906717285 0.9416718243675596 0  2.129597166119069 1.789222031537214 0  2.18810790430862 1.984496550988127 0  2.386612868144041 2.031965095233697 0  2.245629970118138 2.17939790234415 0  2.047585755669034 2.131789892026408 0  2.105010193345768 2.326657011733452 0  1.907569359430797 2.27914210204094 0  2.302392147803814 2.374133304062124 0  1.964702514723202 2.473647422375571 0  1.767386830052401 2.426157295676232 0  1.821468269259928 -2.315676813734461 0  1.754467447075317 -2.508771357819055 0  1.954062924125181 -2.470096635920664 0  -1.407822417348898 -2.229175445653066 0  -1.471995693284243 -2.424026186582467 0  -1.271708886820861 -2.382108393180163 0  2.479559567848463 0.3900911914731034 0  0.7603440370921706 1.64392461102568 0  0.5541650969125735 1.592638944939821 0  0.7001737664409912 1.441384132150289 0  0.7999206928351521 -1.407585009852978 0  1.845070751747189 2.086480787543096 0  -1.438935034305727 1.320461123431687 0  1.731178749742166 0.3736788520689575 0  1.271469512195825 -1.131687893270308 0  2.424848221565991 -2.197202492728904 0  2.356708220915416 -2.389375518014814 0  2.492358135366156 -2.004281774200875 0  1.486816524208101 0.8894383746151699 0  -2.074631551458826 -2.539505717144259 0  -0.06670494814225475 1.449377200243897 0  0.1420537642346368 1.496911401516524 0  0.9978802954190193 2.445644203813434 0  0.7971246712740201 2.399045757289031 0  1.203570811073197 2.49898218469144 0  1.346627337328675 2.343485369237898 0  1.422231398637977 2.544114391189644 0  2.428209600870715 -1.656947803148003 0  2.496458727417883 -1.464665485691154 0  2.365489283944436 -1.309530955569468 0  1.619948431308855 -0.1217490177592577 0  1.494258707290129 0.04412206065299782 0  0.8538263595535225 2.599999823213538 0  1.406479977327371 0.6799256623360296 0  1.274351263438503 0.8511361520223037 0  -2.496523253159554 0.3171952918671596 0  -2.437083494076866 0.5217478791937202 0  2.368285183381673 -0.00570736693157943 0  2.185260990854633 -0.0478665100275407 0  2.035407681351299 -1.172979865587442 0  1.281854735437848 -2.241705967652991 0  1.217895442067669 -2.435098394395309 0  1.902561260492526 -0.4547672239536434 0  -1.341186750133684 -2.574223270461475 0  -2.476417804820194 -2.100009978825308 0  -2.418379412568078 -1.905847986966635 0  -2.221059043707525 -1.861660682456627 0  -2.357860600720294 -1.711792467540631 0  -2.552798656542272 -1.756567475906945 0  -2.491311520063127 -1.562682547850818 0  -2.296890692483563 -1.517520336390526 0  -2.43320479062181 -1.367590366327645 0  -1.142260916726227 -2.529221514138472 0  -1.071621285820712 -2.340416936182974 0  -0.9306485417478385 -2.48747039863779 0  0.8720158953805415 -1.195384083545997 0  0.6561811226292074 2.542730206712398 0  2.548175244352032 1.346196004729278 0  1.080053596752186 0.5980331532517159 0  2.553881342121745 -1.262906219384955 0  2.434720620712797 -1.101616713216589 0  -0.5885748585194528 -1.040613257813222 0  -0.5572330907540566 -1.26244480407091 0  -0.7805962772565903 -1.180919043772927 0  -0.3458625870268501 -1.335355324041645 0  -0.5174616831730963 -1.474948005282417 0  -0.3116331370020279 -1.547679441637679 0  -0.1337048614764994 -1.414419206015721 0  -1.039814077359499 0.590961579639931 0  -1.260025392622832 0.561585903681229 0  -1.180487621345402 0.7816218984799203 0  -1.325068289341699 0.3175914165483393 0  0.593185277041486 1.062629917557862 0  -0.6836255718144686 0.9907210794255963 0  -0.8961234373529852 1.054461142741205 0  -0.7446555370680061 1.208448384723284 0  -0.9540943802465246 1.259343058058919 0  -1.088923301713772 1.118626521077442 0  -1.01978907151075 -0.6970755785377123 0  -1.063426822700721 -0.8965150044277458 0  -1.213811494527122 -0.7428896642230687 0  -1.268477933515148 -0.9515612616578638 0  -1.121040891474373 -1.09285064259327 0  2.67839790052103 -1.389777394338238 0  -1.177976442763047 -0.1510830229691346 0  -1.303545743660605 -0.3056438805822753 0  -1.39182321474357 -0.08968394823270995 0  0.1684512293050074 -1.183549560740004 0  0.3085056401177729 -1.337974444420905 0  -2.352275785763924 2.563150789995214 0  -2.522626323357593 2.535912968922212 0  1.184113301190454 0.1914878078963731 0  1.316243320795436 0.3455739785131845 0  2.56501514235027 0.05297536971506869 0  2.516162715473755 -0.1210379256292214 0  -0.3619169897672785 -2.599846173908672 0  -0.1734623262762033 -2.533883459458058 0  0.1439974331987621 1.165523955057872 0  1.955226686077971 -0.2733825257837604 0  2.544841913288178 -2.34587388060841 0  2.485713827024976 -2.52855003731703 0  2.284933337233055 -2.560899189285175 0  1.350622954486882 -2.577477586558693 0  1.15076723526671 -2.62329559441787 0  1.011515740168729 -2.474180847394837 0  1.888132460791723 -2.661920813538615 0  0.5694961021690593 -1.050608861676118 0  -2.5470312677911 0.1162265676208971 0  -2.417348196941557 -0.0323295751450008 0  -2.60144250618073 -0.0819327360451388 0  -2.47110618898995 -0.2401826140116489 0  -0.2666104307904175 1.401198831943613 0  -0.4163863352048123 1.553913874375962 0  -1.252558123473607 0.06891985146345089 0  -1.463233183507609 0.1229163401658049 0  -1.408201980875759 -0.8010560565225211 0  -1.484686019640244 -1.010057301395399 0  2.58071839481466 0.7854605976519728 0  0.5016172472322241 -1.277020802086982 0  -1.554368871420228 -2.648773639624245 0  -1.35987272151124 -0.6012274869706364 0  0.4911476838179023 1.386307648642851 0  2.692014910927968 -2.485726176299595 0  1.826572377330342 2.629450867334875 0  2.024372967478428 2.663740572237295 0  -0.08932122925838686 1.223399533833656 0  -0.5981627698283316 -2.613623671031286 0  -0.6992914999436786 -2.810636009943128 0  0.689431479341063 2.724267267027748 0  -0.4669048018979343 1.334132261663606 0  1.626830811125687 2.589092681513982 0  1.46938442428026 2.739725635108923 0  1.567565124157048 2.381044899279943 0  -1.144418928574192 1.320422046085175 0  -1.399033150960971 -2.769368159616796 0  1.689543217327652 -2.700795154783695 0  0.09064578949124164 -1.399539694761274 0  0.2182098167036707 -1.541369828516741 0  -1.629860627484194 -0.04096122602460999 0  -0.8070852226641034 1.427409022717499 0  1.313929647099727 -2.792168097603711 0  -0.1103823193042984 -1.640968473955063 0  -0.2817546242038808 -1.77404475586186 0  -1.405494872281758 0.7302328935871081 0  1.26297194821438 2.690177144400272 0  -0.7215474967248529 -2.453701752281774 0  -2.641670147144447 2.361691900509463 0  -2.699096405265913 0.2639895687111721 0  -2.631089045356291 -1.413408972141969 0  -2.571069590899349 -1.217496008811392 0  -2.373907535436239 -1.17228655226252 0  -2.510489038088897 -1.017196969874759 0  -2.791577321866611 -1.267582321859014 0  1.191326966031577 -0.1822147720920045 0  -0.1810770361572545 -1.185103161012327 0  -0.2874603191417813 -2.819154889395826 0  2.501015398397957 1.148199718447002 0  2.678500299763457 1.216224842257592 0  -1.344976467082462 0.9460370857193381 0  1.703295536742157 0.09435579416451736 0  1.892428404538393 0.04191323899185635 0  -1.556549393794998 0.3238636215135594 0  2.533683166306446 0.5920675998764789 0  2.709594473821293 0.6358705091899508 0  2.67588728804245 0.4478095943919707 0  2.022340388621882 -2.276246354434083 0  -1.614464116617174 -0.8361054894627076 0  2.100264912394922 1.04274660444522 0  -0.7192404451637131 -1.402023746718358 0  -0.9480792489170695 -1.385425098290664 0  -0.6728551374020501 -1.600064883637319 0  0.3117075916338672 -2.255400890495284 0  0.4507082357374843 -2.410707555216918 0  0.6537482924381864 -2.369395204886548 0  0.5870968697525004 -2.564744339475137 0  0.3799965168461688 -2.608588351532323 0  0.5266006580864904 -2.796687121675462 0  0.1781835790267171 -2.649384011635336 0  0.7891477884015861 -2.524919115781604 0  0.2449648917798187 -2.453421237236856 0  0.04246662438659266 -2.491061873682309 0  0.865138950749863 -2.325854929043392 0  1.141842679815271 -2.08748300714287 0  -2.110731151003721 0.9706468707729079 0  -2.252714568877138 1.124165470567766 0  -2.189785673124768 1.324329472643951 0  -2.393111375178654 1.276670762739912 0  -2.334219146313896 1.473758785307931 0  -2.533316825132979 1.42614827738755 0  -2.474154443699879 1.621560852422758 0  -2.45274426802727 1.078202204502811 0  -2.27241058866411 1.672156831043417 0  -2.41342065061157 1.820207055306626 0  -2.613496456043197 1.770605798152496 0  -2.55299188146051 1.967966781602834 0  -2.740539055110816 1.929234272271015 0  -2.693608308927859 2.111019509337528 0  -2.490643705031148 2.176639297769319 0  -2.314942921624481 0.9255058752771245 0  -2.516046255691556 0.8820253278112462 0  -2.376566326572456 0.7256181432968805 0  -2.56471115086072 0.6726676939136191 0  -2.689600340134676 0.7958120865908757 0  -2.21059124687306 1.872684735600973 0  -2.124639937534542 1.527047152319782 0  2.090477231099368 -2.617725601893402 0  -1.31885840405828 -1.153965604252511 0  -1.17292870890814 -1.314080707047834 0  0.3856266291912707 2.303975668006462 0  0.2423346062034739 2.454906613851872 0  0.03894743023371344 2.407750662812175 0  0.09902263764137997 2.606163356206942 0  -0.100442347781484 2.555290201665283 0  0.3127398689618744 2.665869425529306 0  -0.1654951291206203 2.358962526395862 0  -0.3073984842134186 2.502901041649244 0  1.867775433776987 1.543875378534791 0  1.927523332236964 1.741315734766976 0  2.623583491527754 0.2495348992662688 0  2.780234696590687 0.09904535011619203 0  -0.1003443153661173 -2.337244013786605 0  2.473185988593201 -0.5269821045702656 0  2.598015490927042 -0.7106557631552806 0  2.514487877573509 -0.891255587558162 0  2.71311029471408 -0.8712146795417504 0  0.7355141389842288 -2.708336776635146 0  2.335401445660658 0.5383971359219238 0  1.576315851089802 1.846108424491564 0  1.631795896575967 2.047054614705639 0  -0.3753094116204074 2.310532882878819 0  -0.5156465993239294 2.460796051566318 0  -0.7192027173077353 2.41528703478948 0  -0.652403938976957 2.632044386537968 0  -0.8596945093558734 2.555802200503838 0  -0.9202690852567517 2.368318352701996 0  -1.060889600320682 2.513957270704426 0  -0.4202387352309281 2.656839971030712 0  -1.122253536852609 2.322087363151488 0  -1.259714473369514 2.475751404454883 0  -1.187460450365785 2.66247504918314 0  -1.390569297410313 2.629517215611618 0  -1.461442498071426 2.43191379947557 0  -1.595266848273098 2.59846790567547 0  -1.730210172097063 2.805835872724444 0  -1.804063706474228 2.608708104196841 0  -1.70216362161627 2.402881537184099 0  1.207112121025393 -1.889819566807372 0  -2.135873052025587 -0.348094736997154 0  -2.337749851916382 -0.3942111278948157 0  -2.399683973063452 -0.5959178629597359 0  -2.532821746216666 -0.4438957979539029 0  -2.595127086126417 -0.6477013629794625 0  -2.459425984608608 -0.7973909868307809 0  -2.719111379962484 -0.4849167665292092 0  -2.810724600440632 -0.6900105517346126 0  1.757596044819193 -1.412955124141355 0  1.827407106296249 -1.215311983587973 0  1.96296686524998 -1.376951472151001 0  1.202059358137499 -0.7711338938389938 0  -2.632856275432391 1.22241440975868 0  -2.705640216195172 1.400805485333102 0  0.5932347457167768 2.350346241555157 0  0.4523297351228045 2.495899437006226 0  -1.67637523943429 -2.468217799787018 0  1.285071944327364 2.146240515149977 0  2.157960028443024 2.516330763941189 0  2.350893059424401 2.555657180546051 0  2.491549269956709 2.421900420167413 0  2.541988528540206 2.631659039893638 0  -2.233889202993243 0.5680570530417145 0  2.661265897818968 0.979599759952014 0  -1.822684709226146 -1.768716518410663 0  2.640456786939015 1.552052728605726 0  2.664877422186117 1.779007552626293 0  2.518448197873936 1.89420440138762 0  2.576251125893053 2.080164628933888 0  2.360059699544877 -1.849742833940217 0  2.552812513931479 -1.818442174893212 0  2.678575579989515 -1.96624132920837 0  2.609130588946294 -2.150960754527514 0  2.645927892599939 -1.620917560591464 0  -1.393941425497886 2.071861445163348 0  2.309832832308812 -0.9329607205140075 0  -1.874676682317046 -2.503552974873794 0  -1.936945386266943 -2.69898935896001 0  1.413481081738333 -1.848856827217942 0  2.440320471976923 2.227644702692329 0  2.635745694853782 2.273352184793393 0  1.551381486574378 -2.535798151245291 0  -1.886287035586522 -1.964745947881701 0  -1.598692260707409 2.022210259140953 0  -1.538743318174167 2.22817184040661 0  -2.271155461542548 -2.59095155656985 0  -2.457992920866683 -2.632681042280104 0  -2.603009076924635 -2.483593656071671 0  -2.279234721614548 -0.1858938039842271 0  -2.162454493383487 2.61491669335795 0  -2.302823728739167 2.773693035388987 0  2.152718565067813 -2.432561771242644 0  1.889715798181514 -2.120880930490744 0  -2.531792861249509 -2.294543746643618 0  -0.6512366703286583 -2.260522317211196 0  -2.257045445353678 -0.7565925045835615 0  2.301528271332509 1.093882966216495 0  -1.341094452042892 -2.033003968192495 0  -1.327749481454577 2.274978538286104 0  -0.9844776455865959 2.168829554914766 0  -1.885318610600206 2.319721894500588 0  -1.901462212317332 2.748535871006327 0  -2.702432611188343 -1.066621838859925 0  -0.02388719436314578 2.206615781138775 0  -0.9970584359573615 -2.14624739638554 0  -2.646994152894784 -1.963976675633751 0  -2.753472025014036 -1.799823923945915 0  2.303908036139849 -2.84083144602445 0  -2.826920288217086 -2.283288436183076 0  2.499999999998151 2.826794919242473 0  -2.830138156184804 2.483720527133378 0  -2.080634401642207 -2.840017539665278 0  2.83018544528866 1.888142540785156 0  0.7240206564711917 -2.1709448155307 0  1.755021071476053 -0.2969408728162738 0  -1.005336685689679 -1.592118902193396 0  2.070841284484727 1.591808847389686 0  1.892079780719714 -1.573562142520768 0  -1.490763233565692 1.112621621989254 0  -0.8605970582284739 -2.299064085515485 0  0.8961423830735564 2.821961714861196 0  -0.8999999999922342 -2.826794919242474 0  -0.7000000000085065 2.826794919243752 0  1.904885736415542 2.823626749458497 0  0.2039706043467131 1.696153856992716 0  2.623690200868553 -1.066326298914681 0  -0.1108828342277746 2.834317585475136 0  -2.804893378895999 -0.1058006647141873 0  2.831985184128798 -0.2988084906926189 0  2.651817386573279 -0.3999999999903418 0  0.736507375999109 2.200342380288876 0  -2.084248350670141 -2.012067654614115 0  0.4091333495980269 1.74668758237306 0  -1.985066484976573 1.373936697893512 0  -2.316965939233272 -0.9633535315602355 0  1.346794952202345 -2.045615389258471 0  1.340259861604972 -0.9298698625265674 0  -2.214733760986246 0.01114495801888958 0  -2.665552240421582 1.577494953354685 0  -0.7810673547986188 2.215815271815163 0  -1.204274316009687 -2.187121062089298 0  -1.331243994391032 -1.471485670341893 0  1.831692324939006 -0.6517368766879457 0  1.547730050023098 1.091336959384369 0  -1.616257029603733 0.7007210107216081 0  -1.632675411082405 -1.172003226420566 0  0.7321441328506635 -1.616215192471463 0  -0.3540156741504828 1.754924244816424 0  -2.022951391942776 -1.815448206323402 0  1.25618312958506 1.393984809504643 0  1.052308876362874 1.344699626082454 0  -1.387502033017131 1.517006987616161 0  1.986610304580679 1.937440422674394 0  0.9654130183731902 1.695512085458805 0  1.783710088981255 0.5860333737115019 0  -2.508766317499362 -2.823827973423941 0  -1.923100564482619 1.575143052694475 0  1.203718676088138 -1.332468797398719 0  1.489570917522746 2.19259741766684 0  -0.9680591032643679 1.612917616961824 0  -2.238153470244814 -1.320629306229938 0  -1.608502930292501 -0.4484293693732267 0  1.781776917403199 1.89133753918454 0  1.706190389506058 2.233984042551316 0  1.588148697057584 0.521551365135448 0  1.694462859684442 -0.4897564112702242 0  1.5159862241889 0.294130476552005 0  1.339759180675049 1.043901658965329 0  1.139897222418172 1.001176943587786 0  -2.160632267726941 -1.66605195960606 0  -0.5582248846105293 1.708669266656126 0  0.9065834111070653 1.494406145013617 0  1.074896539313273 -2.282435724102279 0  1.138170964614773 -0.9758964102124883 0  1.067385985748698 -1.171655661572895 0  1.087614119078056 -2.822866363114265 0  2.810060788558832 -2.119594109528814 0  1.196604907548716 1.195316164106315 0  0.0970462869932692 -2.82797955164256 0  -2.620993200206101 0.47489189539869 0  0.3498008724255286 1.537631552108897 0  2.236287033961506 -1.144357227031803 0  2.824310961726198 2.32031634177871 0  1.255837077140517 0.5425061522564267 0  2.165581361204685 -1.340340932279249 0  2.817516777795507 -0.7023470622713666 0  1.05695665078036 2.645722741970501 0  -1.474823336227255 0.5220806818175333 0  -2.099564559742335 -1.468060500561122 0  -1.298705064012479 2.830639371606667 0  -2.658856035102041 1.006541389342686 0  0.8465940134543005 1.295913572074573 0  -1.098929650262068 2.836574920507732 0  2.843407578366452 -1.293456998017791 0  -2.693733012027645 2.843543349954801 0  2.84317061452299 2.696221140785346 0  2.694795839393952 -2.836903916970567 0  -2.832816127936685 -2.698530880950508 0  0.9974276746996061 1.152318709099202 0  -2.177284604157445 -1.117157795095358 0  0.266187471405828 1.344239756666367 0  -2.65233245714901 -0.856755580452992 0  2.099999999996673 2.839762438970006 0  -0.9268740032863426 -1.030205568363594 0  -2.843798838167746 0.6934271188411641 0  -1.029416441127048 0.9251522212390573 0  0.3045558211970768 2.860451135421317 0  -1.751573782696883 -2.62698356846641 0  -0.6097339839974885 1.504544772407298 0  -0.5144562100135667 2.824827026658445 0  -1.753556441462634 0.3012129738248963 0  0.9502796218181162 -0.9981403191754878 0  -2.682865921326177 -1.614637695484252 0  0.6361335514006886 1.245887885148588 0  -1.018575368192074 -2.671683438583554 0  -0.4820068121164102 -1.672147868241393 0  0.9383091610447811 -2.654775509461811 0  1.880393731280368 -2.843338284979567 0  0.7943013319774391 1.104034638254449 0  1.05913831090552 0.8082749253251863 0  2.325326643272576 -0.1901840480729425 0  -0.8088871133601803 -2.638067782462989 0  2.847482341647061 1.700000000004807 0  2.84025964821623 1.304678076487534 0  2.838056178730289 1.09413702133298 0  2.606381307201076 -2.674588975905894 0  -2.661917947053539 -2.173036935252592 0  2.847739608691187 0.5164290119802214 0  0.4154435998515652 -1.501884763327667 0  -1.285412767159861 1.171865169520824 0  -2.648914620884056 -2.660014942320212 0  -0.01495364435233784 -2.671100977254036 0  -1.512992794457787 -0.2636920534016394 0  -2.646853901836185 -0.2997003645367252 0  2.841409790105072 -1.900588779405682 0  -2.841779300406817 1.520035762291575 0  0.3193867310754928 -1.713326488063303 0  2.856106499588495 -1.499999999994453 0  -0.9846271270243947 2.686018254440423 0  2.671211778027538 -0.2122919915811941 0  2.487968657411172 -0.3059157832472595 0  2.213589045884177 2.68911373664708 0  2.87132119763036 -2.501562086630926 0  -0.08496247833718505 -1.81531745992007 0  -1.226466700474949 -2.714234103721387 0  1.305971175979887 0.00550280095042506 0  -1.010377606241123 1.431468883103767 0  -2.612169101537726 2.693272961721254 0  2.657853007748334 2.480830581995613 0  -2.861128283038747 2.07785298819937 0  -1.906616504389385 -2.870878193542454 0  0.5226804323801292 2.651110968856611 0  -0.2223953563223175 2.674785064831481 0  -2.873017947596384 0.2919351769785978 0  2.04942526900557 0.09813143212140479 0  1.699019388663125 -2.876370694033846 0  1.020653886299811 -0.8296176475411283 0  -2.847518722509795 -1.935894680186917 0  -1.201409310824554 -0.5352774112868187 0  0.6100116760999361 -1.445147678220689 0  2.145500228549202 -0.2398244961030531 0  -2.851452550803284 -1.661167883431592 0  -0.5721781402189361 1.141496785515883 0  -2.841090710135433 1.285736555755889 0  1.808718083355142 -0.1174754588135725 0  -2.867885726326246 -1.095491421755626 0  2.399485231142803 -2.690956474043829 0  -1.638898499283888 0.1653618891060661 0  0.6804226098087525 -1.213344334639736 0  -2.853477264996061 0.8996412070329451 0  -0.8377100055087073 -1.544013019593302 0  2.871705034912079 -0.8999999999922341 0  -1.133283960220273 -1.481372675422574 0  0.055130816857584 -1.570287999833959 0  -1.539667915423571 -2.849697200893665 0  2.675014829544784 -0.5631954643131681 0  0.9315930617505939 0.9703904933136636 0  -1.144534656858505 0.2123949013158637 0  2.67674995573485 1.948510587666852 0  0.7027361354368828 -2.874067133474086 0  1.366591692625402 0.1797168210449028 0  -1.993461594122488 2.621960267104778 0  1.31867372320981 2.866462541551299 0  -2.853589838485828 2.853589838485433 0  2.853589838485433 2.853589838485828 0  2.853589838485828 -2.853589838485433 0  -2.853589838485433 -2.853589838485828 0  2.717198021507325 -1.81223732629961 0  2.704342040720364 -1.198961757048066 0  2.868095209818989 0.7031263609271871 0  2.704763241614575 1.396905956898487 0  0.07280516326346151 1.337559523455198 0  -1.265484455919847 -2.865991163595795 0  0.7630890647569141 -0.9912443621384478 0  1.416539059301962 0.4767375269586188 0  2.006093277063485 -0.0897507199357776 0  -2.682604657867532 -2.352428978189784 0  -0.8000000000081376 2.708765681954789 0  -0.7549859783860353 -0.9739792593761442 0  -0.9735768345452751 0.75532580979967 0  -0.1779476702394431 -2.689181071389909 0  -2.140293190879373 -2.687518524876449 0  -2.709105082626924 0.5986301583185929 0  2.39311727578106 2.711834995847655 0  -0.6508560764023256 1.347467079136199 0  -1.342188818084583 -1.310358211193241 0  -0.02663289768104684 2.692895517798789 0  -2.683221198839326 2.553449504444745 0  2.217883969027048 -2.705325492721614 0  1.478758230533394 -2.681821196754816 0  -2.879842934230311 -0.5009716083976847 0  -2.45246182093562 2.684409723791353 0  -0.6456762521807438 -1.768211107643531 0  2.714460097808619 2.625059124227201 0  2.685796854181508 -0.05064536213262597 0  -1.770516352996273 -0.7971604298159529 0  0.6993905569618106 2.887265675737527 0  -1.418401120098985 -0.4548153697465178 0  1.498252146037907 2.890789134703948 0  -1.472097364832764 -1.178475153557843 0  -0.00405866481750895 -1.256707831181791 0  0.9227073211526795 -0.6651266709411033 0  -2.895286509025693 1.899999999995932 0  0.702468879839933 0.9316550164149463 0  0.9325847415996846 0.6586328524062757 0  -1.900017773322062 2.887693052839697 0  -1.0307720908298 -0.5260493327558373 0  -2.69444746978452 0.05757807778541103 0  -1.2904073782991 1.377195075110389 0  -0.2839494981047045 1.234621914442046 0  -0.989903825968503 -1.200696212013658 0  2.688624247051648 -2.287319829979125 0  -1.507030909378985 -0.6470461936051882 0  2.734092562833714 0.7967945060834574 0  -1.185843319685709 0.9886605792073162 0  1.211565388520539 0.6980673820621004 0  -1.881310768948745 2.468345889645063 0  </DataArray>
</Points>
<Cells>
<DataArray  type="UInt32"  Name="connectivity"  format="ascii">0 94  0 95  0 939  1 65  1 66  1 938  2 36  2 37  2 937  3 8  3 123  3 936  4 135  4 136  4 537  4 599  4 898  5 129  5 130  5 543  5 571  6 124  6 147  6 530  6 559  6 930  7 141  7 142  7 533  7 600  7 973  8 9  8 847  8 936  9 10  9 196  9 847  10 11  10 196  10 743  11 12  11 187  11 743  12 13  12 187  12 978  13 14  13 689  13 978  14 15  14 153  14 689  15 16  15 153  15 842  16 17  16 842  16 845  17 18  17 164  17 845  18 19  18 164  18 775  19 20  19 775  19 862  20 21  20 172  20 862  21 22  21 172  21 779  22 23  22 192  22 779  23 24  23 192  23 859  24 25  24 170  24 859  25 26  25 170  25 969  26 27  26 773  26 969  27 28  27 160  27 773  28 29  28 160  28 935  29 30  29 935  29 971  30 31  30 149  30 971  31 32  31 149  31 776  32 33  32 776  32 855  33 34  33 188  33 855  34 35  34 188  34 762  35 36  35 200  35 762  36 200  36 937  37 38  37 848  37 937  38 39  38 197  38 848  39 40  39 197  39 835  40 41  40 184  40 835  41 42  41 184  41 765  42 43  42 765  42 875  43 44  43 152  43 875  44 45  44 152  44 876  45 46  45 876  45 877  46 47  46 165  46 877  47 48  47 165  47 942  48 49  48 880  48 942  49 50  49 175  49 880  50 51  50 175  50 665  51 52  51 193  51 665  52 53  52 193  52 781  53 54  53 168  53 781  54 55  54 168  54 838  55 56  55 838  55 924  56 57  56 161  56 924  57 58  57 161  57 846  58 59  58 846  58 890  59 60  59 150  59 890  60 61  60 150  60 887  61 62  61 829  61 887  62 63  62 189  62 829  63 64  63 189  63 895  64 65  64 201  64 895  65 201  65 938  66 67  66 849  66 938  67 68  67 198  67 849  68 69  68 198  68 760  69 70  69 185  69 760  70 71  70 185  70 870  71 72  71 870  71 908  72 73  72 154  72 908  73 74  73 154  73 586  74 75  74 586  74 828  75 76  75 166  75 828  76 77  76 166  76 932  77 78  77 622  77 932  78 79  78 173  78 622  79 80  79 173  79 831  80 81  80 195  80 831  81 82  81 195  81 601  82 83  82 169  82 601  83 84  83 169  83 573  84 85  84 573  84 774  85 86  85 162  85 774  86 87  86 162  86 945  87 88  87 580  87 927  87 945  88 89  88 151  88 927  89 90  89 151  89 903  90 91  90 764  90 903  91 92  91 190  91 764  92 93  92 190  92 808  93 94  93 202  93 808  94 202  94 939  95 96  95 850  95 939  96 97  96 199  96 850  97 98  97 199  97 761  98 99  98 186  98 761  99 100  99 186  99 910  100 101  100 759  100 910  100 914  101 102  101 155  101 914  102 103  102 155  102 598  103 104  103 598  103 918  104 105  104 167  104 918  105 106  105 167  105 700  106 107  106 700  106 963  107 108  107 174  107 963  108 109  108 174  108 780  109 110  109 194  109 780  110 111  110 194  110 906  111 112  111 171  111 906  112 113  112 171  112 857  113 114  113 857  113 922  114 115  114 163  114 922  115 116  115 163  115 916  116 117  116 888  116 916  117 118  117 148  117 888  118 119  118 148  118 975  119 120  119 902  119 975  120 121  120 191  120 902  121 122  121 191  121 763  122 123  122 203  122 763  123 203  123 936  124 125  124 182  124 930  125 126  125 182  125 514  126 127  126 156  126 514  126 952  127 128  127 156  127 519  128 129  128 176  128 519  128 915  129 176  129 571  129 982  130 131  130 183  130 543  131 132  131 183  131 518  131 976  132 133  132 157  132 976  133 134  133 157  133 977  134 135  134 177  134 504  134 977  135 177  135 537  136 137  136 180  136 599  137 138  137 180  137 204  137 974  138 139  138 158  138 974  139 140  139 158  139 552  139 946  140 141  140 178  140 552  141 178  141 533  142 143  142 181  142 600  143 144  143 181  143 507  144 145  144 159  144 507  144 951  145 146  145 159  145 524  145 979  146 147  146 179  146 979  147 179  147 530  148 639  148 641  148 791  148 888  148 975  149 569  149 576  149 577  149 776  149 971  150 726  150 887  150 890  150 940  151 565  151 730  151 860  151 903  151 927  152 718  152 875  152 876  152 943  153 686  153 688  153 689  153 842  154 581  154 586  154 908  154 962  155 594  155 598  155 865  155 914  156 519  156 520  156 858  156 952  157 872  157 929  157 976  157 977  158 864  158 909  158 946  158 974  159 524  159 525  159 856  159 951  160 590  160 773  160 839  160 935  161 670  161 778  161 846  161 924  161 941  162 774  162 867  162 897  162 945  163 705  163 843  163 916  163 922  164 775  164 845  164 891  164 950  165 716  165 877  165 942  165 986  166 671  166 828  166 869  166 932  167 700  167 755  167 854  167 918  168 781  168 782  168 838  168 928  169 541  169 572  169 573  169 601  170 574  170 659  170 859  170 904  170 969  171 593  171 832  171 857  171 906  171 955  172 682  172 779  172 862  172 905  173 621  173 622  173 623  173 831  174 699  174 780  174 886  174 963  175 610  175 664  175 665  175 880  176 575  176 915  176 982  177 504  177 537  177 538  177 836  178 533  178 534  178 552  178 564  179 530  179 531  179 911  179 979  180 204  180 205  180 206  180 599  181 507  181 508  181 510  181 600  182 514  182 515  182 517  182 930  183 518  183 543  183 567  183 853  183 866  184 721  184 733  184 765  184 835  184 931  185 551  185 651  185 760  185 870  185 961  186 758  186 761  186 879  186 910  187 742  187 743  187 754  187 934  187 978  188 762  188 855  188 894  188 956  189 568  189 829  189 895  189 984  190 738  190 739  190 764  190 808  190 954  191 592  191 642  191 763  191 902  192 657  192 659  192 779  192 859  192 959  193 665  193 781  193 892  193 967  194 593  194 780  194 906  194 980  195 601  195 831  195 884  195 953  196 743  196 847  196 900  196 964  197 835  197 848  197 901  197 966  198 760  198 849  198 878  198 919  199 740  199 761  199 850  199 883  199 949  200 714  200 762  200 848  200 937  200 966  201 568  201 849  201 878  201 895  201 938  202 808  202 850  202 883  202 939  203 763  203 847  203 900  203 936  203 960  204 205  204 704  204 909  204 974  205 206  205 207  205 208  205 704  206 207  206 209  206 412  206 599  207 208  207 209  207 210  207 818  208 210  208 211  208 704  208 789  209 412  209 476  209 767  209 818  210 211  210 212  210 795  210 818  211 212  211 213  211 214  211 789  212 213  212 227  212 228  212 795  213 214  213 215  213 227  213 702  214 215  214 216  214 460  214 789  215 216  215 217  215 701  215 702  216 217  216 218  216 460  216 810  217 218  217 219  217 221  217 701  218 219  218 220  218 230  218 810  219 220  219 221  219 222  219 731  220 230  220 231  220 692  220 731  221 222  221 223  221 701  221 770  222 223  222 224  222 229  222 731  223 224  223 225  223 226  223 770  224 225  224 229  224 234  224 745  225 226  225 232  225 233  225 745  226 232  226 238  226 406  226 770  227 228  227 236  227 485  227 702  228 236  228 237  228 378  228 795  229 234  229 235  229 731  229 788  230 231  230 239  230 411  230 810  231 239  231 240  231 241  231 692  232 233  232 238  232 390  232 722  233 390  233 391  233 611  233 745  234 235  234 416  234 446  234 745  235 416  235 417  235 486  235 788  236 237  236 485  236 728  236 834  237 378  237 385  237 392  237 728  238 406  238 407  238 473  238 722  239 240  239 411  239 456  239 799  240 241  240 242  240 243  240 799  241 242  241 373  241 628  241 692  242 243  242 244  242 373  242 766  243 244  243 245  243 413  243 799  244 245  244 246  244 374  244 766  245 246  245 247  245 413  245 889  246 247  246 248  246 374  246 617  247 248  247 249  247 372  247 889  248 249  248 250  248 403  248 617  249 250  249 251  249 372  249 896  250 251  250 252  250 403  250 666  251 252  251 253  251 588  251 896  252 253  252 254  252 419  252 666  253 254  253 255  253 256  253 588  254 255  254 419  254 423  254 747  255 256  255 257  255 258  255 747  256 257  256 588  256 868  256 965  257 258  257 259  257 260  257 965  258 259  258 747  258 757  258 772  259 260  259 261  259 262  259 757  260 261  260 616  260 768  260 923  260 965  261 262  261 263  261 264  261 768  262 263  262 750  262 757  262 793  263 264  263 265  263 266  263 750  264 265  264 768  264 794  264 925  265 266  265 267  265 268  265 794  266 267  266 269  266 279  266 750  267 268  267 269  267 270  267 717  268 270  268 271  268 281  268 794  269 279  269 280  269 717  269 735  270 271  270 272  270 274  270 717  271 272  271 273  271 281  271 798  272 273  272 274  272 275  272 841  273 275  273 276  273 277  273 798  274 717  274 801  274 822  274 841  275 276  275 813  275 841  275 852  276 277  276 278  276 282  276 852  277 278  277 562  277 612  277 798  277 968  278 282  278 283  278 284  278 968  279 280  279 395  279 449  279 750  280 395  280 396  280 397  280 735  281 794  281 798  281 958  281 972  282 283  282 748  282 787  282 852  283 284  283 285  283 377  283 748  284 285  284 286  284 389  284 968  285 286  285 287  285 377  285 693  286 287  286 288  286 389  286 814  287 288  287 289  287 290  287 693  288 289  288 584  288 814  288 885  289 290  289 291  289 292  289 584  290 291  290 693  290 741  290 790  291 292  291 293  291 294  291 790  292 293  292 584  292 863  292 920  293 294  293 295  293 296  293 863  294 295  294 409  294 415  294 790  295 296  295 297  295 409  295 715  296 297  296 298  296 410  296 863  297 298  297 299  297 369  297 715  298 299  298 300  298 410  298 797  299 300  299 301  299 369  299 629  300 301  300 302  300 376  300 797  301 302  301 303  301 326  301 629  302 303  302 304  302 376  302 771  303 304  303 305  303 326  303 786  304 305  304 306  304 458  304 771  305 306  305 307  305 786  305 809  306 307  306 308  306 458  306 804  307 308  307 309  307 313  307 809  308 309  308 310  308 311  308 804  309 310  309 313  309 319  309 736  310 311  310 312  310 727  310 736  311 312  311 314  311 328  311 804  312 314  312 315  312 327  312 727  313 319  313 320  313 321  313 809  314 315  314 316  314 328  314 812  315 316  315 317  315 327  315 752  316 317  316 318  316 382  316 812  317 318  317 322  317 752  317 792  318 322  318 323  318 382  318 823  319 320  319 370  319 379  319 736  320 321  320 370  320 371  320 649  321 637  321 649  321 650  321 809  322 323  322 324  322 381  322 792  323 324  323 325  323 800  323 823  324 325  324 329  324 381  324 675  325 329  325 330  325 331  325 800  326 629  326 630  326 631  326 786  327 683  327 727  327 751  327 752  328 579  328 804  328 812  328 899  328 981  329 330  329 660  329 675  329 756  330 331  330 332  330 333  330 756  331 332  331 388  331 418  331 800  332 333  332 334  332 388  332 777  333 334  333 335  333 399  333 756  334 335  334 336  334 777  334 785  335 336  335 337  335 399  335 654  336 337  336 338  336 339  336 785  337 338  337 654  337 707  337 783  338 339  338 340  338 341  338 783  339 340  339 453  339 454  339 785  340 341  340 342  340 453  340 806  341 342  341 343  341 383  341 783  342 343  342 344  342 345  342 806  343 344  343 383  343 384  343 710  344 345  344 346  344 358  344 710  345 346  345 347  345 359  345 806  346 347  346 348  346 358  346 673  347 348  347 349  347 359  347 802  348 349  348 350  348 351  348 673  349 350  349 352  349 380  349 802  350 351  350 352  350 353  350 662  351 662  351 663  351 673  351 815  352 353  352 354  352 380  352 796  353 354  353 355  353 357  353 662  354 355  354 356  354 361  354 796  355 356  355 357  355 360  355 613  356 361  356 362  356 363  356 613  357 360  357 375  357 662  357 769  358 673  358 674  358 710  358 811  359 802  359 803  359 806  359 824  360 375  360 398  360 613  360 749  361 362  361 393  361 464  361 796  362 363  362 364  362 393  362 807  363 364  363 365  363 433  363 613  364 365  364 366  364 367  364 807  365 366  365 433  365 434  365 672  366 367  366 368  366 408  366 672  367 368  367 387  367 459  367 807  368 387  368 408  368 414  368 907  369 629  369 644  369 646  369 715  370 371  370 379  370 402  370 753  371 402  371 404  371 405  371 649  372 583  372 587  372 889  372 896  372 926  373 627  373 628  373 766  373 825  374 617  374 618  374 619  374 766  375 398  375 425  375 426  375 769  376 589  376 604  376 771  376 797  377 693  377 694  377 695  377 748  378 385  378 386  378 488  378 795  379 691  379 736  379 737  379 753  380 796  380 802  380 820  380 830  381 675  381 676  381 677  381 792  382 585  382 812  382 823  382 861  383 384  383 468  383 469  383 783  384 468  384 470  384 471  384 710  385 386  385 392  385 394  385 667  386 394  386 488  386 544  386 913  387 459  387 605  387 606  387 907  388 418  388 466  388 467  388 777  389 612  389 814  389 968  389 985  390 391  390 461  390 463  390 722  391 461  391 462  391 611  391 744  392 667  392 668  392 669  392 728  393 464  393 479  393 807  393 817  394 667  394 873  394 893  394 913  395 396  395 449  395 450  395 709  396 397  396 400  396 709  396 729  397 400  397 401  397 735  397 784  398 425  398 503  398 602  398 749  399 654  399 655  399 656  399 756  400 401  400 420  400 465  400 729  401 420  401 421  401 422  401 784  402 404  402 429  402 430  402 753  403 617  403 625  403 626  403 666  404 405  404 429  404 431  404 643  405 638  405 640  405 643  405 649  406 407  406 703  406 770  406 837  407 473  407 474  407 475  407 837  408 414  408 432  408 452  408 672  409 415  409 481  409 482  409 715  410 607  410 797  410 840  410 863  411 456  411 501  411 810  411 827  412 476  412 477  412 599  412 898  413 799  413 881  413 889  413 912  414 432  414 483  414 484  414 907  415 481  415 553  415 554  415 790  416 417  416 446  416 447  416 734  417 486  417 487  417 548  417 734  418 466  418 557  418 558  418 800  419 423  419 541  419 542  419 666  420 421  420 424  420 465  420 738  421 422  421 424  421 490  421 746  422 490  422 491  422 492  422 784  423 541  423 572  423 591  423 747  424 738  424 739  424 740  424 746  425 426  425 427  425 503  425 718  426 427  426 428  426 436  426 769  427 428  427 718  427 719  427 720  428 436  428 437  428 438  428 720  429 430  429 431  429 535  429 742  430 742  430 753  430 934  430 989  431 535  431 536  431 592  431 643  432 452  432 483  432 539  432 664  433 434  433 435  433 613  433 749  434 435  434 563  434 608  434 672  435 563  435 602  435 716  435 749  436 437  436 663  436 769  436 805  437 438  437 439  437 440  437 805  438 439  438 720  438 721  438 732  439 440  439 441  439 443  439 732  440 441  440 442  440 457  440 805  441 442  441 443  441 444  441 711  442 444  442 445  442 457  442 816  443 711  443 712  443 713  443 732  444 445  444 569  444 570  444 711  445 569  445 576  445 578  445 816  446 447  446 448  446 611  446 745  447 448  447 551  447 581  447 734  448 551  448 611  448 651  448 744  449 450  449 451  449 750  449 793  450 451  450 489  450 565  450 709  451 489  451 498  451 499  451 793  452 608  452 610  452 664  452 672  453 454  453 455  453 806  453 824  454 455  454 567  454 785  454 833  455 567  455 824  455 844  455 866  456 501  456 799  456 912  456 921  457 674  457 805  457 815  457 816  458 771  458 804  458 882  458 981  459 605  459 807  459 817  459 819  460 789  460 810  460 826  460 827  461 462  461 463  461 545  461 725  462 545  462 546  462 547  462 744  463 722  463 723  463 724  463 725  464 479  464 480  464 796  464 820  465 729  465 730  465 738  465 954  466 467  466 557  466 571  466 944  467 777  467 833  467 853  467 944  468 469  468 470  468 478  468 839  469 478  469 502  469 707  469 783  470 471  470 472  470 590  470 839  471 472  471 578  471 710  471 811  472 576  472 577  472 578  472 590  473 474  473 722  473 723  473 726  474 475  474 505  474 529  474 726  475 505  475 506  475 834  475 837  476 477  476 605  476 767  476 917  477 605  477 819  477 898  477 933  478 502  478 574  478 773  478 839  479 480  479 817  479 836  479 947  479 988  480 820  480 821  480 872  480 988  481 482  481 553  481 593  481 832  482 646  482 647  482 715  482 832  483 484  483 539  483 540  483 873  484 873  484 907  484 913  484 948  485 702  485 703  485 834  485 837  486 487  486 628  486 788  486 825  487 548  487 549  487 550  487 825  488 544  488 767  488 795  488 818  489 498  489 565  489 580  489 897  490 491  490 746  490 758  490 879  491 492  491 493  491 494  491 758  492 493  492 784  492 801  492 822  493 494  493 495  493 496  493 822  494 495  494 758  494 759  494 865  495 496  495 497  495 594  495 865  496 497  496 813  496 822  496 841  497 594  497 595  497 596  497 813  498 499  498 500  498 867  498 897  499 500  499 757  499 772  499 793  500 591  500 772  500 867  500 874  501 827  501 864  501 921  501 946  502 574  502 707  502 708  502 904  503 602  503 603  503 718  503 943  504 836  504 872  504 977  504 988  505 506  505 529  505 778  505 941  506 669  506 728  506 778  506 834  507 508  507 509  507 951  508 509  508 510  508 511  508 614  509 614  509 615  509 856  509 951  509 983  510 511  510 512  510 513  510 600  511 512  511 614  511 616  511 868  512 513  512 587  512 588  512 868  513 582  513 587  513 600  513 926  513 973  514 515  514 516  514 952  515 516  515 517  515 589  515 840  516 589  516 604  516 858  516 952  516 987  517 559  517 560  517 607  517 840  517 930  518 866  518 871  518 976  519 520  519 521  519 915  520 521  520 522  520 523  520 858  521 522  521 585  521 915  521 957  522 523  522 579  522 585  522 899  523 579  523 858  523 882  523 987  524 525  524 526  524 911  524 979  525 526  525 527  525 528  525 856  526 527  526 561  526 566  526 911  527 528  527 561  527 562  527 652  528 652  528 653  528 856  528 983  529 726  529 846  529 890  529 941  530 531  530 532  530 559  531 532  531 885  531 911  531 970  532 559  532 560  532 584  532 885  533 534  533 582  533 973  534 564  534 582  534 583  534 881  535 536  535 742  535 743  535 964  536 592  536 900  536 960  536 964  537 538  537 898  537 933  538 819  538 836  538 933  538 947  539 540  539 664  539 665  539 967  540 873  540 892  540 893  540 967  541 542  541 572  541 601  541 953  542 626  542 666  542 884  542 953  543 571  543 853  543 944  544 767  544 913  544 917  544 948  545 546  545 568  545 725  545 984  546 547  546 568  546 878  546 919  547 651  547 744  547 919  547 961  548 549  548 586  548 734  548 962  549 550  549 586  549 828  549 869  550 624  550 627  550 825  550 869  551 581  551 651  551 870  552 564  552 921  552 946  553 554  553 555  553 593  553 980  554 555  554 556  554 741  554 790  555 556  555 780  555 886  555 980  556 694  556 696  556 741  556 886  557 558  557 571  557 575  557 982  558 575  558 800  558 823  558 861  559 560  559 930  560 584  560 607  560 920  561 562  561 566  561 612  561 985  562 612  562 652  562 798  562 972  563 608  563 609  563 716  563 986  564 881  564 912  564 921  565 580  565 709  565 860  565 927  566 911  566 970  566 985  567 833  567 853  567 866  568 878  568 895  568 984  569 570  569 576  569 776  570 711  570 776  570 855  570 894  571 944  571 982  572 573  572 591  572 874  573 774  573 874  574 773  574 904  574 969  575 861  575 915  575 957  575 982  576 577  576 578  577 590  577 935  577 971  578 811  578 816  579 882  579 899  579 981  580 897  580 927  580 945  581 734  581 870  581 908  581 962  582 583  582 926  582 973  583 881  583 889  583 926  584 885  584 920  585 812  585 861  585 899  585 957  586 828  586 962  587 588  587 896  587 926  588 868  588 896  589 604  589 797  589 840  590 839  590 935  591 747  591 772  591 874  592 642  592 643  592 763  592 960  593 832  593 906  593 980  594 595  594 598  594 865  595 596  595 597  595 598  595 755  596 597  596 787  596 813  596 852  597 698  597 755  597 787  597 854  598 755  598 918  599 898  600 973  601 953  602 603  602 716  602 749  603 716  603 876  603 877  603 943  604 771  604 882  604 987  605 606  605 819  605 917  606 907  606 917  606 948  607 840  607 863  607 920  608 609  608 610  608 672  609 610  609 880  609 942  609 986  610 664  610 880  611 744  611 745  612 968  612 985  613 749  614 615  614 616  614 923  615 653  615 768  615 923  615 925  615 983  616 868  616 923  616 965  617 618  617 625  618 619  618 620  618 621  618 625  619 620  619 624  619 627  619 766  620 621  620 622  620 624  620 671  621 622  621 623  621 625  622 671  622 932  623 625  623 626  623 831  623 884  624 627  624 671  624 869  625 626  626 666  626 884  627 766  627 825  628 692  628 788  628 825  629 630  629 644  630 631  630 632  630 636  630 644  631 632  631 633  631 650  631 786  632 633  632 634  632 636  632 705  633 634  633 635  633 637  633 650  634 635  634 705  634 706  634 791  635 637  635 638  635 639  635 791  636 644  636 645  636 705  636 843  637 638  637 649  637 650  638 639  638 640  638 649  639 640  639 641  639 791  640 641  640 642  640 643  641 642  641 902  641 975  642 643  642 902  644 645  644 646  645 646  645 647  645 648  645 843  646 647  646 715  647 648  647 832  647 955  648 843  648 857  648 922  648 955  650 786  650 809  651 744  651 961  652 653  652 958  652 972  653 794  653 925  653 958  653 983  654 655  654 707  654 708  655 656  655 657  655 659  655 708  656 657  656 658  656 660  656 756  657 658  657 659  657 959  658 660  658 661  658 905  658 959  659 708  659 859  659 904  660 661  660 675  660 756  661 675  661 676  661 682  661 905  662 663  662 769  663 769  663 805  663 815  664 665  665 967  667 668  667 782  667 893  667 928  668 669  668 670  668 838  668 928  669 670  669 728  669 778  670 778  670 838  670 924  671 869  671 932  673 674  673 815  674 811  674 815  674 816  675 676  676 677  676 678  676 682  677 678  677 679  677 680  677 792  678 679  678 682  678 775  678 862  678 950  679 680  679 681  679 891  679 950  680 681  680 683  680 752  680 792  681 683  681 684  681 685  681 891  682 862  682 905  683 684  683 751  683 752  684 685  684 686  684 687  684 751  685 686  685 842  685 845  685 891  686 687  686 688  686 842  687 688  687 691  687 737  687 751  688 689  688 690  688 691  689 690  689 754  689 978  690 691  690 754  690 934  690 989  691 737  691 753  691 989  692 731  692 788  693 694  693 741  694 695  694 696  694 741  695 696  695 697  695 698  695 748  696 697  696 699  696 886  697 698  697 699  697 700  697 854  698 748  698 787  698 854  699 700  699 886  699 963  700 854  700 963  701 702  701 703  701 770  702 703  703 770  703 837  704 789  704 826  704 909  705 706  705 843  705 916  706 791  706 888  706 916  707 708  707 783  708 904  709 729  709 860  710 811  711 712  711 894  712 713  712 714  712 894  712 956  713 714  713 732  713 733  713 901  714 762  714 901  714 956  714 966  716 877  716 986  717 735  717 801  718 719  718 875  718 943  719 720  719 765  719 875  719 931  720 721  720 931  721 732  721 733  721 931  722 723  723 724  723 726  723 940  724 725  724 829  724 887  724 940  725 829  725 984  726 890  726 940  727 736  727 737  727 751  728 834  729 730  729 860  730 764  730 860  730 903  730 954  731 788  732 733  733 835  733 901  734 962  735 784  735 801  736 737  737 751  738 739  738 954  739 740  739 808  739 883  740 746  740 883  740 949  741 790  742 743  742 934  743 964  746 879  746 949  747 772  748 787  750 793  752 792  753 989  754 934  754 978  755 854  755 918  757 772  757 793  758 759  758 879  758 910  759 865  759 910  759 914  760 919  760 961  761 879  761 949  762 956  763 960  764 903  764 954  765 875  765 931  767 818  767 917  768 923  768 925  771 882  773 839  773 969  774 867  774 874  775 862  775 950  776 855  777 785  777 833  778 941  779 905  779 959  780 886  780 980  781 782  781 892  782 892  782 893  782 928  784 801  785 833  786 809  787 852  789 826  791 888  794 925  794 958  795 818  796 820  797 840  798 972  799 912  800 823  801 822  802 803  802 830  803 824  803 830  803 844  803 851  804 981  805 815  806 824  807 817  808 883  810 827  811 816  812 899  813 841  813 852  814 885  814 970  814 985  817 819  817 947  819 933  819 947  820 821  820 830  821 830  821 851  821 872  821 929  822 841  823 861  824 844  826 827  826 864  826 909  827 864  828 869  829 887  829 984  830 851  831 884  832 955  833 853  834 837  835 901  836 947  836 988  838 924  838 928  842 845  843 922  844 851  844 866  844 871  845 891  846 890  846 941  847 900  847 936  848 937  848 966  849 878  849 938  850 883  850 939  851 871  851 929  853 944  855 894  856 951  856 983  857 922  857 955  858 952  858 987  861 957  863 920  864 909  864 946  865 914  866 871  867 874  867 897  868 965  870 908  871 929  871 976  872 929  872 977  872 988  873 893  873 913  876 877  876 943  878 919  879 949  880 942  881 889  881 912  882 981  882 987  884 953  885 970  887 940  888 916  891 950  892 893  892 967  894 956  897 945  898 933  900 960  900 964  901 966  902 975  905 959  907 948  909 974  911 970  911 979  912 921  913 948  915 957  917 948  919 961  921 946  929 976  934 989  935 971  942 986  958 972  970 985  </DataArray>
<DataArray  type="UInt32"  Name="offsets"  format="ascii">2 4 6 8 10 12 14 16 18 20 22 24 26 28 30 32 34 36 38 40 42 44 46 48 50 52 54 56 58 60 62 64 66 68 70 72 74 76 78 80 82 84 86 88 90 92 94 96 98 100 102 104 106 108 110 112 114 116 118 120 122 124 126 128 130 132 134 136 138 140 142 144 146 148 150 152 154 156 158 160 162 164 166 168 170 172 174 176 178 180 182 184 186 188 190 192 194 196 198 200 202 204 206 208 210 212 214 216 218 220 222 224 226 228 230 232 234 236 238 240 242 244 246 248 250 252 254 256 258 260 262 264 266 268 270 272 274 276 278 280 282 284 286 288 290 292 294 296 298 300 302 304 306 308 310 312 314 316 318 320 322 324 326 328 330 332 334 336 338 340 342 344 346 348 350 352 354 356 358 360 362 364 366 368 370 372 374 376 378 380 382 384 386 388 390 392 394 396 398 400 402 404 406 408 410 412 414 416 418 420 422 424 426 428 430 432 434 436 438 440 442 444 446 448 450 452 454 456 458 460 462 464 466 468 470 472 474 476 478 480 482 484 486 488 490 492 494 496 498 500 502 504 506 508 510 512 514 516 518 520 522 524 526 528 530 532 534 536 538 540 542 544 546 548 550 552 554 556 558 560 562 564 566 568 570 572 574 576 578 580 582 584 586 588 590 592 594 596 598 600 602 604 606 608 610 612 614 616 618 620 622 624 626 628 630 632 634 636 638 640 642 644 646 648 650 652 654 656 658 660 662 664 666 668 670 672 674 676 678 680 682 684 686 688 690 692 694 696 698 700 702 704 706 708 710 712 714 716 718 720 722 724 726 728 730 732 734 736 738 740 742 744 746 748 750 752 754 756 758 760 762 764 766 768 770 772 774 776 778 780 782 784 786 788 790 792 794 796 798 800 802 804 806 808 810 812 814 816 818 820 822 824 826 828 830 832 834 836 838 840 842 844 846 848 850 852 854 856 858 860 862 864 866 868 870 872 874 876 878 880 882 884 886 888 890 892 894 896 898 900 902 904 906 908 910 912 914 916 918 920 922 924 926 928 930 932 934 936 938 940 942 944 946 948 950 952 954 956 958 960 962 964 966 968 970 972 974 976 978 980 982 984 986 988 990 992 994 996 998 1000 1002 1004 1006 1008 1010 1012 1014 1016 1018 1020 1022 1024 1026 1028 1030 1032 1034 1036 1038 1040 1042 1044 1046 1048 1050 1052 1054 1056 1058 1060 1062 1064 1066 1068 1070 1072 1074 1076 1078 1080 1082 1084 1086 1088 1090 1092 1094 1096 1098 1100 1102 1104 1106 1108 1110 1112 1114 1116 1118 1120 1122 1124 1126 1128 1130 1132 1134 1136 1138 1140 1142 1144 1146 1148 1150 1152 1154 1156 1158 1160 1162 1164 1166 1168 1170 1172 1174 1176 1178 1180 1182 1184 1186 1188 1190 1192 1194 1196 1198 1200 1202 1204 1206 1208 1210 1212 1214 1216 1218 1220 1222 1224 1226 1228 1230 1232 1234 1236 1238 1240 1242 1244 1246 1248 1250 1252 1254 1256 1258 1260 1262 1264 1266 1268 1270 1272 1274 1276 1278 1280 1282 1284 1286 1288 1290 1292 1294 1296 1298 1300 1302 1304 1306 1308 1310 1312 1314 1316 1318 1320 1322 1324 1326 1328 1330 1332 1334 1336 1338 1340 1342 1344 1346 1348 1350 1352 1354 1356 1358 1360 1362 1364 1366 1368 1370 1372 1374 1376 1378 1380 1382 1384 1386 1388 1390 1392 1394 1396 1398 1400 1402 1404 1406 1408 1410 1412 1414 1416 1418 1420 1422 1424 1426 1428 1430 1432 1434 1436 1438 1440 1442 1444 1446 1448 1450 1452 1454 1456 1458 1460 1462 1464 1466 1468 1470 1472 1474 1476 1478 1480 1482 1484 1486 1488 1490 1492 1494 1496 1498 1500 1502 1504 1506 1508 1510 1512 1514 1516 1518 1520 1522 1524 1526 1528 1530 1532 1534 1536 1538 1540 1542 1544 1546 1548 1550 1552 1554 1556 1558 1560 1562 1564 1566 1568 1570 1572 1574 1576 1578 1580 1582 1584 1586 1588 1590 1592 1594 1596 1598 1600 1602 1604 1606 1608 1610 1612 1614 1616 1618 1620 1622 1624 1626 1628 1630 1632 1634 1636 1638 1640 1642 1644 1646 1648 1650 1652 1654 1656 1658 1660 1662 1664 1666 1668 1670 1672 1674 1676 1678 1680 1682 1684 1686 1688 1690 1692 1694 1696 1698 1700 1702 1704 1706 1708 1710 1712 1714 1716 1718 1720 1722 1724 1726 1728 1730 1732 1734 1736 1738 1740 1742 1744 1746 1748 1750 1752 1754 1756 1758 1760 1762 1764 1766 1768 1770 1772 1774 1776 1778 1780 1782 1784 1786 1788 1790 1792 1794 1796 1798 1800 1802 1804 1806 1808 1810 1812 1814 1816 1818 1820 1822 1824 1826 1828 1830 1832 1834 1836 1838 1840 1842 1844 1846 1848 1850 1852 1854 1856 1858 1860 1862 1864 1866 1868 1870 1872 1874 1876 1878 1880 1882 1884 1886 1888 1890 1892 1894 1896 1898 1900 1902 1904 1906 1908 1910 1912 1914 1916 1918 1920 1922 1924 1926 1928 1930 1932 1934 1936 1938 1940 1942 1944 1946 1948 1950 1952 1954 1956 1958 1960 1962 1964 1966 1968 1970 1972 1974 1976 1978 1980 1982 1984 1986 1988 1990 1992 1994 1996 1998 2000 2002 2004 2006 2008 2010 2012 2014 2016 2018 2020 2022 2024 2026 2028 2030 2032 2034 2036 2038 2040 2042 2044 2046 2048 2050 2052 2054 2056 2058 2060 2062 2064 2066 2068 2070 2072 2074 2076 2078 2080 2082 2084 2086 2088 2090 2092 2094 2096 2098 2100 2102 2104 2106 2108 2110 2112 2114 2116 2118 2120 2122 2124 2126 2128 2130 2132 2134 2136 2138 2140 2142 2144 2146 2148 2150 2152 2154 2156 2158 2160 2162 2164 2166 2168 2170 2172 2174 2176 2178 2180 2182 2184 2186 2188 2190 2192 2194 2196 2198 2200 2202 2204 2206 2208 2210 2212 2214 2216 2218 2220 2222 2224 2226 2228 2230 2232 2234 2236 2238 2240 2242 2244 2246 2248 2250 2252 2254 2256 2258 2260 2262 2264 2266 2268 2270 2272 2274 2276 2278 2280 2282 2284 2286 2288 2290 2292 2294 2296 2298 2300 2302 2304 2306 2308 2310 2312 2314 2316 2318 2320 2322 2324 2326 2328 2330 2332 2334 2336 2338 2340 2342 2344 2346 2348 2350 2352 2354 2356 2358 2360 2362 2364 2366 2368 2370 2372 2374 2376 2378 2380 2382 2384 2386 2388 2390 2392 2394 2396 2398 2400 2402 2404 2406 2408 2410 2412 2414 2416 2418 2420 2422 2424 2426 2428 2430 2432 2434 2436 2438 2440 2442 2444 2446 2448 2450 2452 2454 2456 2458 2460 2462 2464 2466 2468 2470 2472 2474 2476 2478 2480 2482 2484 2486 2488 2490 2492 2494 2496 2498 2500 2502 2504 2506 2508 2510 2512 2514 2516 2518 2520 2522 2524 2526 2528 2530 2532 2534 2536 2538 2540 2542 2544 2546 2548 2550 2552 2554 2556 2558 2560 2562 2564 2566 2568 2570 2572 2574 2576 2578 2580 2582 2584 2586 2588 2590 2592 2594 2596 2598 2600 2602 2604 2606 2608 2610 2612 2614 2616 2618 2620 2622 2624 2626 2628 2630 2632 2634 2636 2638 2640 2642 2644 2646 2648 2650 2652 2654 2656 2658 2660 2662 2664 2666 2668 2670 2672 2674 2676 2678 2680 2682 2684 2686 2688 2690 2692 2694 2696 2698 2700 2702 2704 2706 2708 2710 2712 2714 2716 2718 2720 2722 2724 2726 2728 2730 2732 2734 2736 2738 2740 2742 2744 2746 2748 2750 2752 2754 2756 2758 2760 2762 2764 2766 2768 2770 2772 2774 2776 2778 2780 2782 2784 2786 2788 2790 2792 2794 2796 2798 2800 2802 2804 2806 2808 2810 2812 2814 2816 2818 2820 2822 2824 2826 2828 2830 2832 2834 2836 2838 2840 2842 2844 2846 2848 2850 2852 2854 2856 2858 2860 2862 2864 2866 2868 2870 2872 2874 2876 2878 2880 2882 2884 2886 2888 2890 2892 2894 2896 2898 2900 2902 2904 2906 2908 2910 2912 2914 2916 2918 2920 2922 2924 2926 2928 2930 2932 2934 2936 2938 2940 2942 2944 2946 2948 2950 2952 2954 2956 2958 2960 2962 2964 2966 2968 2970 2972 2974 2976 2978 2980 2982 2984 2986 2988 2990 2992 2994 2996 2998 3000 3002 3004 3006 3008 3010 3012 3014 3016 3018 3020 3022 3024 3026 3028 3030 3032 3034 3036 3038 3040 3042 3044 3046 3048 3050 3052 3054 3056 3058 3060 3062 3064 3066 3068 3070 3072 3074 3076 3078 3080 3082 3084 3086 3088 3090 3092 3094 3096 3098 3100 3102 3104 3106 3108 3110 3112 3114 3116 3118 3120 3122 3124 3126 3128 3130 3132 3134 3136 3138 3140 3142 3144 3146 3148 3150 3152 3154 3156 3158 3160 3162 3164 3166 3168 3170 3172 3174 3176 3178 3180 3182 3184 3186 3188 3190 3192 3194 3196 3198 3200 3202 3204 3206 3208 3210 3212 3214 3216 3218 3220 3222 3224 3226 3228 3230 3232 3234 3236 3238 3240 3242 3244 3246 3248 3250 3252 3254 3256 3258 3260 3262 3264 3266 3268 3270 3272 3274 3276 3278 3280 3282 3284 3286 3288 3290 3292 3294 3296 3298 3300 3302 3304 3306 3308 3310 3312 3314 3316 3318 3320 3322 3324 3326 3328 3330 3332 3334 3336 3338 3340 3342 3344 3346 3348 3350 3352 3354 3356 3358 3360 3362 3364 3366 3368 3370 3372 3374 3376 3378 3380 3382 3384 3386 3388 3390 3392 3394 3396 3398 3400 3402 3404 3406 3408 3410 3412 3414 3416 3418 3420 3422 3424 3426 3428 3430 3432 3434 3436 3438 3440 3442 3444 3446 3448 3450 3452 3454 3456 3458 3460 3462 3464 3466 3468 3470 3472 3474 3476 3478 3480 3482 3484 3486 3488 3490 3492 3494 3496 3498 3500 3502 3504 3506 3508 3510 3512 3514 3516 3518 3520 3522 3524 3526 3528 3530 3532 3534 3536 3538 3540 3542 3544 3546 3548 3550 3552 3554 3556 3558 3560 3562 3564 3566 3568 3570 3572 3574 3576 3578 3580 3582 3584 3586 3588 3590 3592 3594 3596 3598 3600 3602 3604 3606 3608 3610 3612 3614 3616 3618 3620 3622 3624 3626 3628 3630 3632 3634 3636 3638 3640 3642 3644 3646 3648 3650 3652 3654 3656 3658 3660 3662 3664 3666 3668 3670 3672 3674 3676 3678 3680 3682 3684 3686 3688 3690 3692 3694 3696 3698 3700 3702 3704 3706 3708 3710 3712 3714 3716 3718 3720 3722 3724 3726 3728 3730 3732 3734 3736 3738 3740 3742 3744 3746 3748 3750 3752 3754 3756 3758 3760 3762 3764 3766 3768 3770 3772 3774 3776 3778 3780 3782 3784 3786 3788 3790 3792 3794 3796 3798 3800 3802 3804 3806 3808 3810 3812 3814 3816 3818 3820 3822 3824 3826 3828 3830 3832 3834 3836 3838 3840 3842 3844 3846 3848 3850 3852 3854 3856 3858 3860 3862 3864 3866 3868 3870 3872 3874 3876 3878 3880 3882 3884 3886 3888 3890 3892 3894 3896 3898 3900 3902 3904 3906 3908 3910 3912 3914 3916 3918 3920 3922 3924 3926 3928 3930 3932 3934 3936 3938 3940 3942 3944 3946 3948 3950 3952 3954 3956 3958 3960 3962 3964 3966 3968 3970 3972 3974 3976 3978 3980 3982 3984 3986 3988 3990 3992 3994 3996 3998 4000 4002 4004 4006 4008 4010 4012 4014 4016 4018 4020 4022 4024 4026 4028 4030 4032 4034 4036 4038 4040 4042 4044 4046 4048 4050 4052 4054 4056 4058 4060 4062 4064 4066 4068 4070 4072 4074 4076 4078 4080 4082 4084 4086 4088 4090 4092 4094 4096 4098 4100 4102 4104 4106 4108 4110 4112 4114 4116 4118 4120 4122 4124 4126 4128 4130 4132 4134 4136 4138 4140 4142 4144 4146 4148 4150 4152 4154 4156 4158 4160 4162 4164 4166 4168 4170 4172 4174 4176 4178 4180 4182 4184 4186 4188 4190 4192 4194 4196 4198 4200 4202 4204 4206 4208 4210 4212 4214 4216 4218 4220 4222 4224 4226 4228 4230 4232 4234 4236 4238 4240 4242 4244 4246 4248 4250 4252 4254 4256 4258 4260 4262 4264 4266 4268 4270 4272 4274 4276 4278 4280 4282 4284 4286 4288 4290 4292 4294 4296 4298 4300 4302 4304 4306 4308 4310 4312 4314 4316 4318 4320 4322 4324 4326 4328 4330 4332 4334 4336 4338 4340 4342 4344 4346 4348 4350 4352 4354 4356 4358 4360 4362 4364 4366 4368 4370 4372 4374 4376 4378 4380 4382 4384 4386 4388 4390 4392 4394 4396 4398 4400 4402 4404 4406 4408 4410 4412 4414 4416 4418 4420 4422 4424 4426 4428 4430 4432 4434 4436 4438 4440 4442 4444 4446 4448 4450 4452 4454 4456 4458 4460 4462 4464 4466 4468 4470 4472 4474 4476 4478 4480 4482 4484 4486 4488 4490 4492 4494 4496 4498 4500 4502 4504 4506 4508 4510 4512 4514 4516 4518 4520 4522 4524 4526 4528 4530 4532 4534 4536 4538 4540 4542 4544 4546 4548 4550 4552 4554 4556 4558 4560 4562 4564 4566 4568 4570 4572 4574 4576 4578 4580 4582 4584 4586 4588 4590 4592 4594 4596 4598 4600 4602 4604 4606 4608 4610 4612 4614 4616 4618 4620 4622 4624 4626 4628 4630 4632 4634 4636 4638 4640 4642 4644 4646 4648 4650 4652 4654 4656 4658 4660 4662 4664 4666 4668 4670 4672 4674 4676 4678 4680 4682 4684 4686 4688 4690 4692 4694 4696 4698 4700 4702 4704 4706 4708 4710 4712 4714 4716 4718 4720 4722 4724 4726 4728 4730 4732 4734 4736 4738 4740 4742 4744 4746 4748 4750 4752 4754 4756 4758 4760 4762 4764 4766 4768 4770 4772 4774 4776 4778 4780 4782 4784 4786 4788 4790 4792 4794 4796 4798 4800 4802 4804 4806 4808 4810 4812 4814 4816 4818 4820 4822 4824 4826 4828 4830 4832 4834 4836 4838 4840 4842 4844 4846 4848 4850 4852 4854 4856 4858 4860 4862 4864 4866 4868 4870 4872 4874 4876 4878 4880 4882 4884 4886 4888 4890 4892 4894 4896 4898 4900 4902 4904 4906 4908 4910 4912 4914 4916 4918 4920 4922 4924 4926 4928 4930 4932 4934 4936 4938 4940 4942 4944 4946 4948 4950 4952 4954 4956 4958 4960 4962 4964 4966 4968 4970 4972 4974 4976 4978 4980 4982 4984 4986 4988 4990 4992 4994 4996 4998 5000 5002 5004 5006 5008 5010 5012 5014 5016 5018 5020 5022 5024 5026 5028 5030 5032 5034 5036 5038 5040 5042 5044 5046 5048 5050 5052 5054 5056 5058 5060 5062 5064 5066 5068 5070 5072 5074 5076 5078 5080 5082 5084 5086 5088 5090 5092 5094 5096 5098 5100 5102 5104 5106 5108 5110 5112 5114 5116 5118 5120 5122 5124 5126 5128 5130 5132 5134 5136 5138 5140 5142 5144 5146 5148 5150 5152 5154 5156 5158 5160 5162 5164 5166 5168 5170 5172 5174 5176 5178 5180 5182 5184 5186 5188 5190 5192 5194 5196 5198 5200 5202 5204 5206 5208 5210 5212 5214 5216 5218 5220 5222 5224 5226 5228 5230 5232 5234 5236 5238 5240 5242 5244 5246 5248 5250 5252 5254 5256 5258 5260 5262 5264 5266 5268 5270 5272 5274 5276 5278 5280 5282 5284 5286 5288 5290 5292 5294 5296 5298 5300 5302 5304 5306 5308 5310 5312 5314 5316 5318 5320 5322 5324 5326 5328 5330 5332 5334 5336 5338 5340 5342 5344 5346 5348 5350 5352 5354 5356 5358 5360 5362 5364 5366 5368 5370 5372 5374 5376 5378 5380 5382 5384 5386 5388 5390 5392 5394 5396 5398 5400 5402 5404 5406 5408 5410 5412 5414 5416 5418 5420 5422 5424 5426 5428 5430 5432 5434 5436 5438 5440 5442 5444 5446 5448 5450 5452 5454 5456 5458 5460 5462 5464 5466 5468 5470 5472 5474 5476 5478 5480 5482 5484 5486 5488 5490 5492 5494 5496 5498 5500 5502 5504 5506 5508 5510 5512 5514 5516 5518 5520 5522 5524 5526 5528 5530 5532 5534 5536 5538 5540 5542 5544 5546 5548 5550 5552 5554 5556 5558 5560 5562 5564 5566 5568 5570 5572 5574 5576 5578 5580 5582 5584 5586 5588 5590 5592 5594 5596 5598 5600 5602 5604 5606 5608 5610 5612 5614 5616 5618 5620 5622 5624 5626 5628 5630 5632 5634 5636 5638 5640 5642 5644 </DataArray>
<DataArray  type="UInt8"  Name="types"  format="ascii">3 3 3 3 3 3 3 3 3 3 3 3 3 3 3 3 3 3 3 3 3 3 3 3 3 3 3 3 3 3 3 3 3 3 3 3 3 3 3 3 3 3 3 3 3 3 3 3 3 3 3 3 3 3 3 3 3 3 3 3 3 3 3 3 3 3 3 3 3 3 3 3 3 3 3 3 3 3 3 3 3 3 3 3 3 3 3 3 3 3 3 3 3 3 3 3 3 3 3 3 3 3 3 3 3 3 3 3 3 3 3 3 3 3 3 3 3 3 3 3 3 3 3 3 3 3 3 3 3 3 3 3 3 3 3 3 3 3 3 3 3 3 3 3 3 3 3 3 3 3 3 3 3 3 3 3 3 3 3 3 3 3 3 3 3 3 3 3 3 3 3 3 3 3 3 3 3 3 3 3 3 3 3 3 3 3 3 3 3 3 3 3 3 3 3 3 3 3 3 3 3 3 3 3 3 3 3 3 3 3 3 3 3 3 3 3 3 3 3 3 3 3 3 3 3 3 3 3 3 3 3 3 3 3 3 3 3 3 3 3 3 3 3 3 3 3 3 3 3 3 3 3 3 3 3 3 3 3 3 3 3 3 3 3 3 3 3 3 3 3 3 3 3 3 3 3 3 3 3 3 3 3 3 3 3 3 3 3 3 3 3 3 3 3 3 3 3 3 3 3 3 3 3 3 3 3 3 3 3 3 3 3 3 3 3 3 3 3 3 3 3 3 3 3 3 3 3 3 3 3 3 3 3 3 3 3 3 3 3 3 3 3 3 3 3 3 3 3 3 3 3 3 3 3 3 3 3 3 3 3 3 3 3 3 3 3 3 3 3 3 3 3 3 3 3 3 3 3 3 3 3 3 3 3 3 3 3 3 3 3 3 3 3 3 3 3 3 3 3 3 3 3 3 3 3 3 3 3 3 3 3 3 3 3 3 3 3 3 3 3 3 3 3 3 3 3 3 3 3 3 3 3 3 3 3 3 3 3 3 3 3 3 3 3 3 3 3 3 3 3 3 3 3 3 3 3 3 3 3 3 3 3 3 3 3 3 3 3 3 3 3 3 3 3 3 3 3 3 3 3 3 3 3 3 3 3 3 3 3 3 3 3 3 3 3 3 3 3 3 3 3 3 3 3 3 3 3 3 3 3 3 3 3 3 3 3 3 3 3 3 3 3 3 3 3 3 3 3 3 3 3 3 3 3 3 3 3 3 3 3 3 3 3 3 3 3 3 3 3 3 3 3 3 3 3 3 3 3 3 3 3 3 3 3 3 3 3 3 3 3 3 3 3 3 3 3 3 3 3 3 3 3 3 3 3 3 3 3 3 3 3 3 3 3 3 3 3 3 3 3 3 3 3 3 3 3 3 3 3 3 3 3 3 3 3 3 3 3 3 3 3 3 3 3 3 3 3 3 3 3 3 3 3 3 3 3 3 3 3 3 3 3 3 3 3 3 3 3 3 3 3 3 3 3 3 3 3 3 3 3 3 3 3 3 3 3 3 3 3 3 3 3 3 3 3 3 3 3 3 3 3 3 3 3 3 3 3 3 3 3 3 3 3 3 3 3 3 3 3 3 3 3 3 3 3 3 3 3 3 3 3 3 3 3 3 3 3 3 3 3 3 3 3 3 3 3 3 3 3 3 3 3 3 3 3 3 3 3 3 3 3 3 3 3 3 3 3 3 3 3 3 3 3 3 3 3 3 3 3 3 3 3 3 3 3 3 3 3 3 3 3 3 3 3 3 3 3 3 3 3 3 3 3 3 3 3 3 3 3 3 3 3 3 3 3 3 3 3 3 3 3 3 3 3 3 3 3 3 3 3 3 3 3 3 3 3 3 3 3 3 3 3 3 3 3 3 3 3 3 3 3 3 3 3 3 3 3 3 3 3 3 3 3 3 3 3 3 3 3 3 3 3 3 3 3 3 3 3 3 3 3 3 3 3 3 3 3 3 3 3 3 3 3 3 3 3 3 3 3 3 3 3 3 3 3 3 3 3 3 3 3 3 3 3 3 3 3 3 3 3 3 3 3 3 3 3 3 3 3 3 3 3 3 3 3 3 3 3 3 3 3 3 3 3 3 3 3 3 3 3 3 3 3 3 3 3 3 3 3 3 3 3 3 3 3 3 3 3 3 3 3 3 3 3 3 3 3 3 3 3 3 3 3 3 3 3 3 3 3 3 3 3 3 3 3 3 3 3 3 3 3 3 3 3 3 3 3 3 3 3 3 3 3 3 3 3 3 3 3 3 3 3 3 3 3 3 3 3 3 3 3 3 3 3 3 3 3 3 3 3 3 3 3 3 3 3 3 3 3 3 3 3 3 3 3 3 3 3 3 3 3 3 3 3 3 3 3 3 3 3 3 3 3 3 3 3 3 3 3 3 3 3 3 3 3 3 3 3 3 3 3 3 3 3 3 3 3 3 3 3 3 3 3 3 3 3 3 3 3 3 3 3 3 3 3 3 3 3 3 3 3 3 3 3 3 3 3 3 3 3 3 3 3 3 3 3 3 3 3 3 3 3 3 3 3 3 3 3 3 3 3 3 3 3 3 3 3 3 3 3 3 3 3 3 3 3 3 3 3 3 3 3 3 3 3 3 3 3 3 3 3 3 3 3 3 3 3 3 3 3 3 3 3 3 3 3 3 3 3 3 3 3 3 3 3 3 3 3 3 3 3 3 3 3 3 3 3 3 3 3 3 3 3 3 3 3 3 3 3 3 3 3 3 3 3 3 3 3 3 3 3 3 3 3 3 3 3 3 3 3 3 3 3 3 3 3 3 3 3 3 3 3 3 3 3 3 3 3 3 3 3 3 3 3 3 3 3 3 3 3 3 3 3 3 3 3 3 3 3 3 3 3 3 3 3 3 3 3 3 3 3 3 3 3 3 3 3 3 3 3 3 3 3 3 3 3 3 3 3 3 3 3 3 3 3 3 3 3 3 3 3 3 3 3 3 3 3 3 3 3 3 3 3 3 3 3 3 3 3 3 3 3 3 3 3 3 3 3 3 3 3 3 3 3 3 3 3 3 3 3 3 3 3 3 3 3 3 3 3 3 3 3 3 3 3 3 3 3 3 3 3 3 3 3 3 3 3 3 3 3 3 3 3 3 3 3 3 3 3 3 3 3 3 3 3 3 3 3 3 3 3 3 3 3 3 3 3 3 3 3 3 3 3 3 3 3 3 3 3 3 3 3 3 3 3 3 3 3 3 3 3 3 3 3 3 3 3 3 3 3 3 3 3 3 3 3 3 3 3 3 3 3 3 3 3 3 3 3 3 3 3 3 3 3 3 3 3 3 3 3 3 3 3 3 3 3 3 3 3 3 3 3 3 3 3 3 3 3 3 3 3 3 3 3 3 3 3 3 3 3 3 3 3 3 3 3 3 3 3 3 3 3 3 3 3 3 3 3 3 3 3 3 3 3 3 3 3 3 3 3 3 3 3 3 3 3 3 3 3 3 3 3 3 3 3 3 3 3 3 3 3 3 3 3 3 3 3 3 3 3 3 3 3 3 3 3 3 3 3 3 3 3 3 3 3 3 3 3 3 3 3 3 3 3 3 3 3 3 3 3 3 3 3 3 3 3 3 3 3 3 3 3 3 3 3 3 3 3 3 3 3 3 3 3 3 3 3 3 3 3 3 3 3 3 3 3 3 3 3 3 3 3 3 3 3 3 3 3 3 3 3 3 3 3 3 3 3 3 3 3 3 3 3 3 3 3 3 3 3 3 3 3 3 3 3 3 3 3 3 3 3 3 3 3 3 3 3 3 3 3 3 3 3 3 3 3 3 3 3 3 3 3 3 3 3 3 3 3 3 3 3 3 3 3 3 3 3 3 3 3 3 3 3 3 3 3 3 3 3 3 3 3 3 3 3 3 3 3 3 3 3 3 3 3 3 3 3 3 3 3 3 3 3 3 3 3 3 3 3 3 3 3 3 3 3 3 3 3 3 3 3 3 3 3 3 3 3 3 3 3 3 3 3 3 3 3 3 3 3 3 3 3 3 3 3 3 3 3 3 3 3 3 3 3 3 3 3 3 3 3 3 3 3 3 3 3 3 3 3 3 3 3 3 3 3 3 3 3 3 3 3 3 3 3 3 3 3 3 3 3 3 3 3 3 3 3 3 3 3 3 3 3 3 3 3 3 3 3 3 3 3 3 3 3 3 3 3 3 3 3 3 3 3 3 3 3 3 3 3 3 3 3 3 3 3 3 3 3 3 3 3 3 3 3 3 3 3 3 3 3 3 3 3 3 3 3 3 3 3 3 3 3 3 3 3 3 3 3 3 3 3 3 3 3 3 3 3 3 3 3 3 3 3 3 3 3 3 3 3 3 3 3 3 3 3 3 3 3 3 3 3 3 3 3 3 3 3 3 3 3 3 3 3 3 3 3 3 3 3 3 3 3 3 3 3 3 3 3 3 3 3 3 3 3 3 3 3 3 3 3 3 3 3 3 3 3 3 3 3 3 3 3 3 3 3 3 3 3 3 3 3 3 3 3 3 3 3 3 3 3 3 3 3 3 3 3 3 3 3 3 3 3 3 3 3 3 3 3 3 3 3 3 3 3 3 3 3 3 3 3 3 3 3 3 3 3 3 3 3 3 3 3 3 3 3 3 3 3 3 3 3 3 3 3 3 3 3 3 3 3 3 3 3 3 3 3 3 3 3 3 3 3 3 3 3 3 3 3 3 3 3 3 3 3 3 3 3 3 3 3 3 3 3 3 3 3 3 3 3 3 3 3 3 3 3 3 3 3 3 3 3 3 3 3 3 3 3 3 3 3 3 3 3 3 3 3 3 3 3 3 3 3 3 3 3 3 3 3 3 3 3 3 3 3 3 3 3 3 3 3 3 3 3 3 3 3 3 3 3 3 3 3 3 3 3 3 3 3 3 3 3 3 3 3 3 3 3 3 3 3 3 3 3 3 3 3 3 3 3 3 3 3 3 3 3 3 3 3 3 3 3 3 3 3 3 3 3 3 3 3 3 3 3 3 3 3 3 3 3 3 3 3 3 3 3 3 3 3 3 3 3 3 3 3 3 3 3 3 3 3 3 3 3 3 3 3 3 3 3 3 3 3 3 3 3 3 3 3 3 3 3 3 3 3 3 3 3 3 3 3 3 3 3 3 3 3 3 3 3 3 3 3 3 3 3 3 3 3 3 3 3 3 3 3 3 3 3 3 3 3 3 3 3 3 3 3 3 3 3 3 3 3 3 3 3 3 3 3 3 3 3 3 3 3 3 3 3 3 3 3 3 3 3 3 3 3 3 3 3 3 3 3 3 3 3 3 3 3 3 3 3 3 3 3 3 3 3 3 3 3 3 3 3 3 3 3 3 3 3 3 3 3 3 3 3 3 3 3 3 3 3 3 3 3 3 3 3 3 3 3 3 3 3 3 3 3 3 3 3 3 3 3 3 3 3 3 3 3 3 3 3 3 3 3 3 3 3 3 3 3 3 3 3 3 3 3 3 3 3 3 3 3 3 3 3 3 3 3 3 3 3 3 3 3 3 3 3 3 3 3 3 3 3 3 3 3 3 3 3 3 3 3 3 3 3 3 3 3 3 3 3 3 3 3 3 3 3 3 3 3 3 3 3 3 3 3 3 3 3 3 3 3 3 3 3 3 3 3 3 3 3 3 3 3 3 3 3 3 3 3 3 3 3 3 3 3 3 3 3 3 3 3 3 3 3 3 3 3 3 3 3 3 3 3 3 3 3 3 3 3 3 3 3 3 3 3 3 3 3 3 3 3 3 3 3 3 3 3 3 3 3 3 3 3 3 3 3 3 3 3 3 3 3 3 3 3 3 3 3 3 3 3 3 3 3 3 3 3 3 3 3 3 3 3 3 3 3 3 3 3 3 3 3 3 3 3 3 3 3 3 3 3 3 3 3 3 3 3 3 3 3 3 3 3 3 3 3 3 3 3 3 3 3 3 3 3 3 3 3 3 3 3 3 3 3 3 3 3 3 3 3 3 3 3 3 3 3 3 3 3 3 3 3 3 3 3 3 3 3 3 3 3 3 3 3 3 3 3 3 3 3 3 3 3 3 3 3 3 3 3 3 3 3 3 3 3 3 3 3 3 3 3 3 3 3 3 3 3 3 3 3 3 3 3 3 3 3 3 3 3 3 3 3 3 3 3 3 3 3 3 3 3 3 3 3 3 3 3 3 3 3 3 3 3 3 3 3 3 3 3 3 3 3 3 3 3 3 3 3 3 3 3 3 3 3 3 3 3 3 3 3 3 3 3 3 3 3 3 3 3 3 3 3 3 3 3 3 3 3 3 3 3 3 3 3 3 3 3 3 3 3 3 3 3 3 3 3 3 3 3 3 3 </DataArray>
</Cells>
<CellData  Scalars="f">
<DataArray  type="Float64"  Name="f"  format="ascii">3 3 0 3 3 0 3 3 0 3 3 0 1 1 0 0 0 1 1 0 0 1 1 0 0 0 1 1 0 0 0 3 0 0 3 0 0 3 0 0 3 0 0 3 0 0 3 0 0 3 0 0 3 0 0 3 0 0 3 0 0 3 0 0 3 0 0 3 0 0 3 0 0 3 0 0 3 0 0 3 0 0 3 0 0 3 0 0 3 0 0 3 0 0 3 0 0 3 0 0 3 0 0 3 0 0 3 0 0 3 0 0 3 0 0 0 0 3 0 0 3 0 0 3 0 0 3 0 0 3 0 0 3 0 0 3 0 0 3 0 0 3 0 0 3 0 0 3 0 0 3 0 0 3 0 0 3 0 0 3 0 0 3 0 0 3 0 0 3 0 0 3 0 0 3 0 0 3 0 0 3 0 0 3 0 0 3 0 0 3 0 0 3 0 0 3 0 0 3 0 0 0 0 3 0 0 3 0 0 3 0 0 3 0 0 3 0 0 3 0 0 3 0 0 3 0 0 3 0 0 3 0 0 3 0 0 3 0 0 3 0 0 3 0 0 3 0 0 3 0 0 3 0 0 3 0 0 3 0 0 3 0 0 3 0 0 3 0 0 0 3 0 0 3 0 0 3 0 0 3 0 0 3 0 0 3 0 0 0 0 3 0 0 3 0 0 3 0 0 3 0 0 3 0 0 3 0 0 0 3 0 0 3 0 0 3 0 0 3 0 0 3 0 0 3 0 0 3 0 0 3 0 0 3 0 0 3 0 0 3 0 0 3 0 0 3 0 0 3 0 0 3 0 0 3 0 0 3 0 0 3 0 0 3 0 0 3 0 0 3 0 0 3 0 0 0 0 1 0 0 1 0 0 1 0 0 0 1 0 0 1 0 0 0 0 0 0 1 0 0 1 0 0 0 1 0 0 1 0 0 1 0 0 0 0 0 1 0 0 1 0 0 0 1 0 0 1 0 0 0 1 0 0 0 0 1 0 0 1 0 0 1 0 0 0 1 0 0 0 1 0 0 0 0 0 0 0 0 0 0 0 0 0 0 0 0 0 0 0 0 0 0 0 0 0 0 0 0 0 0 0 0 0 0 0 0 0 0 0 0 0 0 0 0 0 0 0 0 0 0 0 0 0 0 0 0 0 0 0 0 0 0 0 0 0 0 0 0 0 0 0 0 0 0 0 0 0 0 0 0 0 0 0 0 0 0 0 0 0 0 0 0 0 0 0 0 0 0 0 0 0 0 0 0 0 0 0 0 0 0 0 0 0 0 0 0 0 0 0 0 0 0 0 0 0 0 0 0 0 0 0 0 0 0 0 0 0 0 0 0 0 0 0 0 0 0 0 0 0 0 0 0 0 0 0 0 0 0 0 0 0 0 0 0 0 0 0 0 0 0 0 0 0 0 0 0 0 0 0 0 0 0 0 0 0 0 0 0 0 0 0 0 0 0 0 0 0 0 0 0 0 0 0 0 0 0 0 0 0 0 0 0 0 0 0 0 0 0 0 0 0 0 0 0 0 0 0 0 0 0 0 0 0 0 0 0 0 0 0 0 0 0 0 0 0 0 0 0 0 0 0 0 0 0 0 0 0 0 0 0 0 0 0 0 0 0 0 0 0 0 0 0 0 0 0 0 0 0 0 0 0 0 0 0 0 0 0 0 0 0 0 0 0 0 0 0 0 0 0 0 0 0 0 0 0 0 0 0 0 0 0 0 0 0 0 0 0 0 0 0 0 0 0 0 0 0 0 0 0 0 0 0 0 0 0 0 0 0 0 0 0 0 0 0 0 0 0 0 0 0 0 0 0 0 0 0 0 0 0 0 0 0 0 0 0 0 0 0 0 0 0 0 0 0 0 0 0 0 0 0 0 0 0 0 0 0 0 0 0 0 0 0 0 0 0 0 0 0 0 0 0 0 0 0 0 0 0 0 0 0 0 0 0 0 0 0 0 0 0 0 0 0 0 0 0 0 0 0 0 0 0 0 0 0 0 0 0 0 0 0 0 0 0 0 0 0 0 0 0 0 0 0 0 0 0 0 0 0 0 0 0 0 0 0 0 0 0 0 0 0 0 0 0 0 0 0 0 0 0 0 0 0 0 0 0 0 0 0 0 0 0 0 0 0 0 0 0 0 0 0 0 0 0 0 0 0 0 0 0 0 0 0 0 0 0 0 0 0 0 0 0 0 0 0 0 0 0 0 0 0 0 0 0 0 0 0 0 0 0 0 0 0 0 0 0 0 0 0 0 0 0 0 0 0 0 0 0 0 0 0 0 0 0 0 0 0 0 0 0 0 0 0 0 0 0 0 0 0 0 0 0 0 0 0 0 0 0 0 0 0 0 0 0 0 0 0 0 0 0 0 0 0 0 0 0 0 0 0 0 0 0 0 0 0 0 0 0 0 0 0 0 0 0 0 0 0 0 0 0 0 0 0 0 0 0 0 0 0 0 0 0 0 0 0 0 0 0 0 0 0 0 0 0 0 0 0 0 0 0 0 0 0 0 0 0 0 0 0 0 0 0 0 0 0 0 0 0 0 0 0 0 0 0 0 0 0 0 0 0 0 0 0 0 0 0 0 0 0 0 0 0 0 0 0 0 0 0 0 0 0 0 0 0 0 0 0 0 0 0 0 0 0 0 0 0 0 0 0 0 0 0 0 0 0 0 0 0 0 0 0 0 0 0 0 0 0 0 0 0 0 0 0 0 0 0 0 0 0 0 0 0 0 0 0 0 0 0 0 0 0 0 0 0 0 0 0 0 0 0 0 0 0 0 0 0 0 0 0 0 0 0 0 0 0 0 0 0 0 0 0 0 0 0 0 0 0 0 0 0 0 0 0 0 0 0 0 0 0 0 0 0 0 0 0 0 0 0 0 0 0 0 0 0 0 0 0 0 0 0 0 0 0 0 0 0 0 0 0 0 0 0 0 0 0 0 0 0 0 0 0 0 0 0 0 0 0 0 0 0 0 0 0 0 0 0 0 0 0 0 0 0 0 0 0 0 0 0 0 0 0 0 0 0 0 0 0 0 0 0 0 0 0 0 0 0 0 0 0 0 0 0 0 0 0 0 0 0 0 0 0 0 0 0 0 0 0 0 0 0 0 0 0 0 0 0 0 0 0 0 0 0 0 0 0 0 0 0 0 0 0 0 0 0 0 0 0 0 0 0 0 0 0 0 0 0 0 0 0 0 0 0 0 0 0 0 0 0 0 0 0 0 0 0 0 0 0 0 0 0 0 0 0 0 0 0 0 0 0 0 0 0 0 0 0 0 0 0 0 0 0 0 0 0 0 0 0 0 0 0 0 0 0 0 0 0 0 0 0 0 0 0 0 0 0 0 0 0 0 0 0 0 0 0 0 0 0 0 0 0 0 0 0 0 0 0 0 0 0 0 0 0 0 0 0 0 0 0 0 0 0 0 0 0 0 0 0 0 0 0 0 0 0 0 0 0 0 0 0 0 0 0 0 0 0 0 0 0 0 0 0 0 0 0 0 0 0 0 0 0 0 0 0 0 0 0 0 0 0 0 0 0 0 0 0 0 0 0 0 0 0 0 0 0 0 0 0 0 0 0 0 0 0 0 0 0 0 0 0 0 0 0 0 0 0 0 0 0 0 0 0 0 0 0 0 0 0 0 0 0 0 0 0 0 0 0 0 0 0 0 0 0 0 0 0 0 0 0 0 0 0 0 0 0 0 0 0 0 0 0 0 0 0 0 0 0 0 0 0 0 0 0 0 0 0 0 0 0 0 0 0 0 0 0 0 0 0 0 0 0 0 0 0 0 0 0 0 0 0 0 0 0 0 0 0 0 0 0 0 0 0 0 0 0 0 0 0 0 0 0 0 0 0 0 0 0 0 0 0 0 0 0 0 0 0 0 0 0 0 0 0 0 0 0 0 0 0 0 0 0 0 0 0 0 0 0 0 0 0 0 0 0 0 0 0 0 0 0 0 0 0 0 0 0 0 0 0 0 0 0 0 0 0 0 0 0 0 0 0 0 0 0 0 0 0 0 0 0 0 0 0 0 0 0 0 0 0 0 0 0 0 0 0 0 0 0 0 0 0 0 0 0 0 0 0 0 0 0 0 0 0 0 0 0 0 0 0 0 0 0 0 0 0 0 0 0 0 0 0 0 0 0 0 0 0 0 0 0 0 0 0 0 0 0 0 0 0 0 0 0 0 0 0 0 0 0 0 0 0 0 0 0 0 0 0 0 0 0 0 0 0 0 0 0 0 0 0 0 0 0 0 0 0 0 0 0 0 0 0 0 0 0 0 0 0 0 0 0 0 0 0 0 0 0 0 0 0 0 0 0 0 0 0 0 0 0 0 0 0 0 0 0 0 0 0 0 0 0 0 0 0 0 0 0 0 0 0 0 0 0 0 0 0 0 0 0 0 0 0 0 0 0 0 0 0 0 0 0 0 0 0 0 0 0 0 0 0 0 0 0 0 0 0 0 0 0 0 0 0 0 0 0 0 0 0 0 0 0 0 0 0 0 0 0 0 0 0 0 0 0 0 0 0 0 0 0 0 0 0 0 0 0 0 0 0 0 0 0 0 0 0 0 0 0 0 0 0 0 0 0 0 0 0 0 0 0 0 0 0 0 0 0 0 0 0 0 0 0 0 0 0 0 0 0 0 0 0 0 0 0 0 0 0 0 0 0 0 0 0 0 0 0 0 0 0 0 0 0 0 0 0 0 0 0 0 0 0 0 0 0 0 0 0 0 0 0 0 0 0 0 0 0 0 0 0 0 0 0 0 0 0 0 0 0 0 0 0 0 0 0 0 0 0 0 0 0 0 0 0 0 0 0 0 0 0 0 0 0 0 0 0 0 0 0 0 0 0 0 0 0 0 0 0 0 0 0 0 0 0 0 0 0 0 0 0 0 0 0 0 0 0 0 0 0 0 0 0 0 0 0 0 0 0 0 0 0 0 0 0 0 0 0 0 0 0 0 0 0 0 0 0 0 0 0 0 0 0 0 0 0 0 0 0 0 0 0 0 0 0 0 0 0 0 0 0 0 0 0 0 0 0 0 0 0 0 0 0 0 0 0 0 0 0 0 0 0 0 0 0 0 0 0 0 0 0 0 0 0 0 0 0 0 0 0 0 0 0 0 0 0 0 0 0 0 0 0 0 0 0 0 0 0 0 0 0 0 0 0 0 0 0 0 0 0 0 0 0 0 0 0 0 0 0 0 0 0 0 0 0 0 0 0 0 0 0 0 0 0 0 0 0 0 0 0 0 0 0 0 0 0 0 0 0 0 0 0 0 0 0 0 0 0 0 0 0 0 0 0 0 0 0 0 0 0 0 0 0 0 0 0 0 0 0 0 0 0 0 0 0 0 0 0 0 0 0 0 0 0 0 0 0 0 0 0 0 0 0 0 0 0 0 0 0 0 0 0 0 0 0 0 0 0 0 0 0 0 0 0 0 0 0 0 0 0 0 0 0 0 0 0 0 0 0 0 0 0 0 0 0 0 0 0 0 0 0 0 0 0 0 0 0 0 0 0 0 0 0 0 0 0 0 0 0 0 0 0 0 0 0 0 0 0 0 0 0 0 0 0 0 0 0 0 0 0 0 0 0 0 0 0 0 0 0 0 0 0 0 0 0 0 0 0 0 0 0 0 0 0 0 0 0 0 0 0 0 0 0 0 0 0 0 0 0 0 0 0 0 0 0 0 0 0 0 0 0 0 0 0 0 0 0 0 0 0 0 0 0 0 0 0 0 0 0 0 0 0 0 0 0 0 0 0 0 0 0 0 0 0 0 0 0 0 0 0 0 0 0 0 0 0 0 0 0 0 0 0 0 0 0 0 0 0 0 0 0 0 0 0 0 0 0 0 0 0 0 0 0 0 0 0 0 0 0 0 0 0 0 0 0 0 0 0 0 0 0 0 0 0 0 0 0 0 0 0 0 0 0 0 0 0 0 0 0 0 0 0 0 0 0 0 0 0 0 0 0 0 0 0 0 0 0 0 0 0 0 0 0 0 0 0 0 0 0 0 0 0 0 0 0 0 0 0 0 0 0 0 0 0 0 0 0 0 0 0 0 0 0 0 0 0 0 0 0 0 0 0 0 0 0 0 0 0 0 0 0 0 0 0 0 0 0 0 0 0 0 0 0 0 0 0 0 0 0 0 0 0 0 0 0 0 0 0 0 0 0 0 0 0 0 0 0 0 0 0 0 0 0 0 0 0 0 0 0 0 0 0 0 0 0 0 0 0 0 0 0 0 0 0 0 0 0 0 0 0 0 0 0 0 0 0 0 0 0 0 0 0 0 0 0 0 0 0 0 0 0 0 0 0 0 0 0 0 0 0 0 0 0 0 0 0 0 0 0 </DataArray>
</CellData>
</Piece>
</UnstructuredGrid>
</VTKFile>